(0 " Created by : Fluent_V6 Interface Vers. 19.5.0")
(2 3)
(0 "Node Section")
(10 (0 1 32a 0 3))
(10 (10 1 32a 1 3)
(
0.45000000000000001 7.6118143914239996e-18 -0.20000000000000001
0.47500000000000003 5.7088607935679989e-18 -0.20000000000000001
0.45000000000000001 0.025000000372529411 -0.20000000000000001
0.47500000000000003 0.025000000000000411 -0.20000000298023216
0.45000000000000001 7.6118143914239996e-18 -0.17499999999999966
0.47500000000000003 5.7088601294854933e-18 -0.17499999999999963
0.44999998807907088 0.025000000000000838 -0.17499999999999921
0.47499999403953547 0.025000000372529901 -0.17500000260770229
0.45000000000000001 7.6118143914239996e-18 -0.1499999999999993
0.47500000000000003 5.7088601294855256e-18 -0.1499999999999993
0.44999998807907032 0.025000000000001424 -0.14999999999999922
0.47499999403953519 0.025000000372530494 -0.15000000223517332
0.45000000000000001 7.6118143914239996e-18 -0.12499999999999895
0.47500000000000003 5.7088601294855087e-18 -0.12499999999999892
0.44999998807907071 0.025000000000001639 -0.12499999999999878
0.47499999403953552 0.025000000372530699 -0.12500000186264387
0.45000000000000007 7.6118143914239996e-18 -0.09999999999999859
0.47500000000000009 5.708860129485491e-18 -0.099999999999998576
0.44999998807907121 0.02500000000000191 -0.099999999999998382
0.47499999403953563 0.025000000372530966 -0.10000000149011443
0.44999999999999996 7.6118143914239996e-18 -0.074999999999998221
0.47499999999999987 5.7088601294855225e-18 -0.074999999999998221
0.44999998807907138 0.025000000000002229 -0.074999999999997916
0.4749999940395358 0.025000000372531285 -0.07500000111758498
0.44999999999999996 7.6118143914239996e-18 -0.049999999999997886
0.47499999999999998 5.7088601294855541e-18 -0.049999999999997879
0.44999998807907166 0.025000000000002617 -0.049999999999997491
0.47499999403953591 0.02500000037253167 -0.05000000074505552
0.45000000000000001 7.6118143914239996e-18 -0.02499999999999751
0.47500000000000003 5.7088601294854848e-18 -0.024999999999997503
0.44999998807907032 0.025000000000003061 -0.025000000000002409
0.4749999940395353 0.025000000372532097 -0.025000000372531472
0.44999998807907104 7.6118144312058545e-18 0
0.47499999403953552 5.7088612472674942e-18 0
0.45000000000000001 0.025000000372526907 0
0.47500000000000009 0.024999999999997875 0
0.45000000000000001 0.050000000745058823 -0.20000000000000001
0.47500000000000009 0.050000000000000787 -0.20000000298023224
0.44999998807907049 0.050000000000000856 -0.17499999999999868
0.47499999403953552 0.050000000745058976 -0.17500000260770182
0.44999998807907149 0.050000000000000981 -0.14999999999999911
0.47499999403953597 0.050000000745059101 -0.15000000223517326
0.44999998807907082 0.050000000000000634 -0.12499999999999857
0.47499999403953558 0.050000000745058754 -0.12500000186264371
0.44999998807907016 0.050000000000000266 -0.099999999999998118
0.47499999403953469 0.050000000745058365 -0.1000000014901142
0.44999998807907116 0.049999999999999871 -0.074999999999997555
0.47499999403953574 0.05000000074505799 -0.075000001117584661
0.44999998807907038 0.049999999999999455 -0.049999999999997068
0.47499999403953524 0.05000000074505756 -0.050000000745055125
0.44999998807907149 0.049999999999999024 -0.025000000000001972
0.4749999940395358 0.05000000074505713 -0.025000000372531084
0.45000000000000007 0.050000000745056651 0
0.47500000000000009 0.049999999999998608 0
0.45000000000000001 0.075000001117588228 -0.20000000000000001
0.47500000000000003 0.075000000000001177 -0.20000000298023232
0.4499999880790706 0.075000000000001302 -0.17499999999999841
0.47499999403953547 0.075000001117588463 -0.17500000260770149
0.4499999880790706 0.07500000000000151 -0.14999999999999947
0.47499999403953541 0.075000001117588658 -0.15000000223517368
0.4499999880790706 0.075000000000001177 -0.12499999999999889
0.47499999403953547 0.075000001117588297 -0.12500000186264409
0.44999998807907082 0.075000000000000816 -0.099999999999998396
0.47499999403953552 0.075000001117587936 -0.10000000149011455
0.44999998807907082 0.075000000000000469 -0.074999999999997846
0.47499999403953558 0.075000001117587589 -0.075000001117584925
0.44999998807907082 0.075000000000000108 -0.04999999999999729
0.47499999403953558 0.075000001117587201 -0.050000000745055367
0.44999998807907071 0.074999999999999664 -0.025000000000002201
0.47499999403953552 0.075000001117586784 -0.025000000372531368
0.45000000000000001 0.075000001117586382 0
0.47500000000000009 0.074999999999999276 0
0.45000000000000001 0.10000000149011763 -0.20000000000000001
0.47500000000000009 0.10000000000000156 -0.20000000298023241
0.44999998807907104 0.10000000000000173 -0.17499999999999821
0.47499999403953574 0.10000000149011792 -0.17500000260770138
0.44999998807907177 0.100000000000002 -0.14999999999999983
0.47499999403953613 0.10000000149011823 -0.15000000223517412
0.44999998807907071 0.1000000000000017 -0.12499999999999924
0.47499999403953563 0.10000000149011788 -0.12500000186264448
0.44999998807907154 0.10000000000000138 -0.099999999999998673
0.47499999403953602 0.10000000149011756 -0.10000000149011487
0.44999998807907027 0.10000000000000105 -0.074999999999998082
0.47499999403953536 0.10000000149011724 -0.075000001117585216
0.44999998807907104 0.1000000000000007 -0.049999999999997526
0.47499999403953574 0.10000000149011687 -0.050000000745055624
0.44999998807907166 0.10000000000000034 -0.02500000000000244
0.47499999403953602 0.10000000149011652 -0.02500000037253167
0.45000000000000001 0.10000000149011611 0
0.47500000000000009 0.099999999999999978 0
0.45000000000000001 0.12500000186264701 -0.19999999999999998
0.47500000000000014 0.12500000000000192 -0.20000000298023207
0.44999998807907143 0.12500000000000219 -0.17499999999999788
0.47499999403953597 0.12500000186264745 -0.17500000260770074
0.44999998807907104 0.1250000000000025 -0.15000000000000022
0.47499999403953574 0.12500000186264776 -0.15000000223517429
0.44999998807907071 0.12500000000000225 -0.12499999999999958
0.47499999403953563 0.12500000186264745 -0.12500000186264465
0.44999998807907038 0.12500000000000192 -0.099999999999998965
0.47499999403953547 0.12500000186264718 -0.10000000149011501
0.44999998807907171 0.12500000000000161 -0.074999999999998346
0.47499999403953619 0.12500000186264693 -0.075000001117585396
0.44999998807907138 0.12500000000000133 -0.049999999999997762
0.47499999403953591 0.12500000186264656 -0.050000000745055791
0.44999998807907104 0.12500000000000103 -0.025000000000002673
0.47499999403953574 0.1250000018626462 -0.025000000372531906
0.45000000000000001 0.12500000186264587 0
0.47499999999999998 0.12500000000000075 0
0.45000000000000001 0.15000000223517646 -0.20000000000000001
0.4750000000000002 0.1500000000000023 -0.20000000298023218
0.44999998807907166 0.15000000000000266 -0.17499999999999755
0.47499999403953624 0.15000000223517687 -0.17500000260770043
0.44999998807907038 0.15000000000000305 -0.15000000000000066
0.47499999403953569 0.15000000223517726 -0.15000000223517476
0.44999998807907071 0.15000000000000277 -0.12499999999999997
0.47499999403953574 0.15000000223517701 -0.12500000186264509
0.44999998807907104 0.15000000000000252 -0.099999999999999326
0.47499999403953574 0.15000000223517679 -0.1000000014901154
0.44999998807907143 0.1500000000000023 -0.074999999999998665
0.47499999403953602 0.15000000223517654 -0.075000001117585702
0.44999998807907177 0.15000000000000197 -0.04999999999999799
0.47499999403953613 0.15000000223517626 -0.050000000745056047
0.44999998807907027 0.15000000000000174 -0.025000000000002926
0.47499999403953547 0.15000000223517598 -0.025000000372532204
0.45000000000000001 0.15000000223517559 0
0.47499999999999998 0.15000000000000147 0
0.44999999999999996 0.17500000260770582 -0.20000000000000001
0.47500000000000009 0.17500000000000235 -0.20000000298023227
0.44999998807907027 0.17499999999999771 -0.17499999999999713
0.47499999403953552 0.17500000260770071 -0.17500000260770007
0.44999998807907132 0.1749999999999981 -0.15000000000000113
0.47499999403953619 0.17500000260770118 -0.15000000223517534
0.4499999880790706 0.17499999999999785 -0.12500000000000039
0.47499999403953563 0.17500000260770091 -0.12500000186264554
0.44999998807907166 0.17499999999999757 -0.099999999999999659
0.47499999403953613 0.17500000260770074 -0.10000000149011579
0.44999998807907093 0.17499999999999724 -0.074999999999998929
0.47499999403953591 0.17500000260770043 -0.075000001117586021
0.44999998807907027 0.17499999999999702 -0.04999999999999824
0.47499999403953552 0.17500000260770027 -0.050000000745056318
0.44999998807907132 0.17499999999999669 -0.025000000000003172
0.47499999403953602 0.17500000260770002 -0.025000000372532503
0.45000000000000001 0.17500000260770532 0
0.47500000000000003 0.17500000000000215 0
0.44999998807907104 0.20000000298023224 -0.20000000298023224
0.47499999403953536 0.20000000000000001 -0.20000000000000001
0.45000000000000001 0.20000000000000001 -0.17500000260770548
0.4750000000000002 0.20000000298023235 -0.17500000000000196
0.45000000000000001 0.20000000000000001 -0.15000000223517571
0.4750000000000002 0.20000000298023235 -0.15000000000000158
0.45000000000000001 0.20000000000000001 -0.1250000018626459
0.4750000000000002 0.20000000298023235 -0.12500000000000075
0.45000000000000001 0.20000000000000001 -0.10000000149011612
0.4750000000000002 0.20000000298023235 -0.10000000000000001
0.45000000000000001 0.20000000000000001 -0.075000001117586326
0.4750000000000002 0.20000000298023238 -0.074999999999999262
0.45000000000000001 0.20000000000000001 -0.050000000745056554
0.47500000000000026 0.20000000298023235 -0.049999999999998511
0.45000000000000001 0.20000000000000001 -0.025000000372526761
0.47500000000000031 0.20000000298023235 -0.024999999999998086
0.44999998807907104 0.20000000298023224 0
0.47499999403953547 0.20000000000000001 0
0.5 3.8059071957120013e-18 -0.20000000000000001
0.5 0.025000000000000432 -0.20000000298023216
0.5 3.8059061847514752e-18 -0.17499999999999963
0.5 0.025000000372529932 -0.17500000260770227
0.5 3.8059061847515006e-18 -0.1499999999999993
0.49999999999999989 0.025000000372530515 -0.15000000223517329
0.5 3.8059061847515245e-18 -0.12499999999999895
0.5 0.025000000372530719 -0.12500000186264387
0.5 3.8059061847514521e-18 -0.09999999999999859
0.5 0.025000000372530976 -0.10000000149011444
0.5 3.8059061847514752e-18 -0.074999999999998207
0.5 0.025000000372531292 -0.075000001117584952
0.5 3.8059061847515014e-18 -0.049999999999997879
0.49999999999999989 0.025000000372531677 -0.050000000745055534
0.5 3.8059061847515268e-18 -0.024999999999997507
0.5 0.025000000372532111 -0.025000000372531472
0.5 3.8059071957120013e-18 0
0.5 0.024999999999997875 0
0.5 0.050000000000000822 -0.20000000298023224
0.5 0.050000000745059003 -0.17500000260770177
0.5 0.050000000745059114 -0.15000000223517329
0.5 0.050000000745058747 -0.12500000186264371
0.49999999999999911 0.050000000745058372 -0.1000000014901142
0.5 0.050000000745057983 -0.075000001117584619
0.5 0.050000000745057553 -0.050000000745055118
0.5 0.050000000745057109 -0.025000000372531084
0.5 0.049999999999998587 0
0.5 0.075000000000001205 -0.20000000298023235
0.5 0.075000001117588477 -0.17500000260770154
0.5 0.075000001117588685 -0.15000000223517371
0.5 0.075000001117588297 -0.12500000186264409
0.5 0.075000001117587964 -0.10000000149011454
0.5 0.075000001117587603 -0.075000001117584911
0.5 0.07500000111758727 -0.050000000745055374
0.5 0.075000001117586826 -0.025000000372531375
0.5 0.074999999999999303 0
0.5 0.1000000000000016 -0.20000000298023243
0.5 0.10000000149011798 -0.17500000260770138
0.5 0.10000000149011826 -0.15000000223517412
0.5 0.10000000149011791 -0.12500000186264448
0.50000000000000011 0.10000000149011756 -0.1000000014901149
0.5 0.10000000149011723 -0.075000001117585202
0.5 0.10000000149011688 -0.05000000074505561
0.49999999999999989 0.10000000149011652 -0.02500000037253167
0.5 0.099999999999999978 0
0.5 0.12500000000000197 -0.20000000298023207
0.5 0.12500000186264748 -0.17500000260770074
0.5 0.12500000186264779 -0.15000000223517429
0.5 0.12500000186264748 -0.12500000186264468
0.5 0.12500000186264718 -0.10000000149011504
0.5 0.12500000186264693 -0.075000001117585369
0.5 0.12500000186264659 -0.050000000745055784
0.5 0.12500000186264626 -0.025000000372531906
0.5 0.12500000000000075 0
0.5 0.15000000000000235 -0.20000000298023218
0.49999999999999989 0.15000000223517698 -0.17500000260770035
0.5 0.15000000223517737 -0.15000000223517473
0.5 0.15000000223517709 -0.12500000186264509
0.50000000000000011 0.15000000223517682 -0.10000000149011543
0.50000000000000011 0.15000000223517654 -0.075000001117585674
0.5 0.15000000223517626 -0.05000000074505604
0.5 0.15000000223517604 -0.025000000372532211
0.5 0.15000000000000147 0
0.5 0.17500000000000238 -0.20000000298023227
0.5 0.17500000260770082 -0.17500000260769999
0.5 0.17500000260770132 -0.15000000223517534
0.5 0.17500000260770104 -0.12500000186264559
0.5 0.17500000260770077 -0.1000000014901158
0.50000000000000011 0.17500000260770052 -0.075000001117585993
0.5 0.17500000260770035 -0.050000000745056304
0.5 0.17500000260770002 -0.025000000372532506
0.5 0.17500000000000215 0
0.5 0.20000000000000001 -0.20000000000000001
0.5 0.20000000298023235 -0.1750000000000019
0.5 0.20000000298023235 -0.15000000000000158
0.5 0.20000000298023235 -0.12500000000000075
0.50000000000000011 0.20000000298023235 -0.10000000000000001
0.50000000000000011 0.20000000298023235 -0.074999999999999234
0.5 0.20000000298023235 -0.049999999999998497
0.5 0.20000000298023235 -0.024999999999998086
0.5 0.20000000000000001 0
0.52500000000000002 1.9029535978560007e-18 -0.20000000000000001
0.52500000000000002 0.025000000000000404 -0.20000000298023216
0.52499999999999991 1.9029525836362895e-18 -0.17499999999999963
0.52500000596046448 0.025000000372529894 -0.17500000260770227
0.52500000000000013 1.9029525836363092e-18 -0.1499999999999993
0.52500000596046492 0.025000000372530484 -0.15000000223517332
0.52499999999999991 1.9029525836363281e-18 -0.12499999999999895
0.52500000596046448 0.025000000372530695 -0.12500000186264387
0.52500000000000013 1.9029525836362487e-18 -0.09999999999999859
0.52500000596046448 0.025000000372530959 -0.10000000149011445
0.52500000000000002 1.9029525836362672e-18 -0.074999999999998235
0.52500000596046426 0.025000000372531282 -0.075000001117584994
0.52499999999999991 1.9029525836362876e-18 -0.049999999999997879
0.52500000596046392 0.025000000372531667 -0.05000000074505552
0.52500000000000013 1.9029525836362572e-18 -0.02499999999999751
0.52500000596046481 0.025000000372532107 -0.025000000372531476
0.52500000596046448 1.9029531441565096e-18 0
0.52499999999999991 0.024999999999997878 0
0.52500000000000002 0.050000000000000794 -0.20000000298023224
0.52500000596046481 0.050000000745058983 -0.17500000260770179
0.52500000596046448 0.050000000745059087 -0.15000000223517326
0.52500000596046459 0.05000000074505874 -0.12500000186264371
0.52500000596046381 0.050000000745058358 -0.10000000149011422
0.52500000596046437 0.050000000745057963 -0.075000001117584661
0.5250000059604647 0.050000000745057539 -0.050000000745055125
0.52500000596046437 0.050000000745057116 -0.025000000372531094
0.52499999999999991 0.049999999999998587 0
0.5249999999999998 0.075000000000001163 -0.20000000298023235
0.52500000596046414 0.07500000111758845 -0.17500000260770157
0.52500000596046437 0.075000001117588644 -0.15000000223517373
0.52500000596046448 0.075000001117588283 -0.12500000186264409
0.52500000596046481 0.075000001117587936 -0.10000000149011455
0.52500000596046459 0.075000001117587589 -0.075000001117584938
0.52500000596046459 0.075000001117587256 -0.050000000745055367
0.52500000596046459 0.075000001117586826 -0.025000000372531382
0.52499999999999991 0.074999999999999303 0
0.52500000000000002 0.10000000000000156 -0.20000000298023243
0.52500000596046414 0.10000000149011792 -0.17500000260770138
0.52500000596046403 0.1000000014901182 -0.15000000223517415
0.52500000596046426 0.1000000014901179 -0.12500000186264448
0.52500000596046426 0.10000000149011758 -0.1000000014901149
0.52500000596046448 0.10000000149011724 -0.075000001117585244
0.52500000596046426 0.1000000014901169 -0.050000000745055617
0.52500000596046392 0.10000000149011654 -0.025000000372531677
0.52499999999999991 0.10000000000000001 0
0.52500000000000002 0.12500000000000192 -0.20000000298023207
0.52500000596046414 0.12500000186264743 -0.17500000260770071
0.52500000596046448 0.12500000186264776 -0.15000000223517432
0.52500000596046426 0.12500000186264745 -0.12500000186264462
0.52500000596046459 0.12500000186264712 -0.10000000149011501
0.52500000596046392 0.12500000186264681 -0.07500000111758541
0.52500000596046392 0.12500000186264656 -0.050000000745055763
0.52500000596046437 0.1250000018626462 -0.025000000372531909
0.52499999999999991 0.12500000000000072 0
0.52500000000000002 0.15000000000000233 -0.20000000298023218
0.52500000596046392 0.15000000223517695 -0.17500000260770035
0.52500000596046481 0.15000000223517729 -0.15000000223517476
0.52500000596046448 0.15000000223517704 -0.12500000186264509
0.52500000596046459 0.15000000223517682 -0.10000000149011541
0.52500000596046414 0.15000000223517654 -0.075000001117585716
0.52500000596046403 0.15000000223517626 -0.050000000745056027
0.5250000059604647 0.15000000223517598 -0.025000000372532208
0.52500000000000013 0.15000000000000147 0
0.5249999999999998 0.17500000000000243 -0.20000000298023227
0.52500000596046448 0.17500000260770082 -0.17500000260770002
0.52500000596046392 0.17500000260770124 -0.15000000223517534
0.52500000596046437 0.17500000260770104 -0.12500000186264554
0.52500000596046381 0.17500000260770071 -0.10000000149011581
0.52500000596046414 0.17500000260770054 -0.075000001117586035
0.5250000059604647 0.17500000260770024 -0.05000000074505629
0.52500000596046392 0.17500000260769999 -0.02500000037253251
0.52500000000000013 0.17500000000000213 0
0.5250000059604647 0.20000000000000001 -0.20000000000000001
0.52500000000000002 0.20000000298023235 -0.1750000000000019
0.52500000000000002 0.20000000298023235 -0.15000000000000158
0.52500000000000002 0.20000000298023235 -0.12500000000000075
0.52500000000000002 0.20000000298023235 -0.10000000000000001
0.5249999999999998 0.20000000298023235 -0.074999999999999262
0.52500000000000002 0.20000000298023235 -0.049999999999998483
0.5249999999999998 0.20000000298023235 -0.024999999999998086
0.52500000596046459 0.20000000000000001 0
0.55000000000000004 0 -0.20000000000000001
0.55000000000000004 0.025000000372529405 -0.20000000000000001
0.55000000000000004 0 -0.17499999999999966
0.55000001192092918 0.025000000000000831 -0.17499999999999921
0.55000000000000004 0 -0.1499999999999993
0.55000001192092962 0.025000000000001424 -0.14999999999999922
0.55000000000000004 0 -0.12499999999999895
0.5500000119209294 0.025000000000001632 -0.12499999999999878
0.55000000000000004 0 -0.099999999999998604
0.55000001192092896 0.025000000000001903 -0.099999999999998396
0.55000000000000004 0 -0.074999999999998221
0.55000001192092862 0.025000000000002222 -0.074999999999997916
0.55000000000000004 0 -0.049999999999997879
0.55000001192092829 0.025000000000002617 -0.049999999999997491
0.55000000000000004 0 -0.024999999999997507
0.55000001192092973 0.025000000000003055 -0.025000000000002406
0.55000001192092896 0 0
0.55000000000000004 0.0250000003725269 0
0.55000000000000004 0.050000000745058816 -0.20000000000000001
0.55000001192092973 0.050000000000000849 -0.17499999999999868
0.55000001192092862 0.050000000000000988 -0.14999999999999911
0.5500000119209294 0.050000000000000627 -0.12499999999999857
0.55000001192092829 0.050000000000000246 -0.09999999999999809
0.55000001192092896 0.049999999999999864 -0.074999999999997555
0.55000001192092973 0.049999999999999462 -0.049999999999997068
0.55000001192092873 0.049999999999999031 -0.025000000000001965
0.55000000000000004 0.050000000745056644 0
0.55000000000000004 0.075000001117588214 -0.20000000000000001
0.5500000119209294 0.075000000000001302 -0.17499999999999841
0.5500000119209294 0.07500000000000151 -0.14999999999999949
0.5500000119209294 0.075000000000001149 -0.1249999999999989
0.5500000119209294 0.075000000000000788 -0.099999999999998368
0.5500000119209294 0.075000000000000441 -0.074999999999997805
0.5500000119209294 0.07500000000000008 -0.049999999999997297
0.5500000119209294 0.074999999999999692 -0.025000000000002208
0.55000000000000004 0.075000001117586368 0
0.55000000000000004 0.10000000149011763 -0.20000000000000001
0.55000001192092896 0.10000000000000173 -0.17499999999999821
0.55000001192092829 0.100000000000002 -0.14999999999999983
0.5500000119209294 0.1000000000000017 -0.12499999999999924
0.55000001192092873 0.10000000000000138 -0.099999999999998673
0.55000001192092973 0.10000000000000105 -0.074999999999998082
0.55000001192092896 0.10000000000000073 -0.049999999999997526
0.55000001192092829 0.10000000000000037 -0.025000000000002437
0.55000000000000004 0.10000000149011612 0
0.55000000000000004 0.12500000186264704 -0.20000000000000001
0.55000001192092873 0.12500000000000222 -0.17499999999999791
0.55000001192092896 0.12500000000000247 -0.15000000000000024
0.5500000119209294 0.12500000000000222 -0.12499999999999964
0.55000001192092973 0.12500000000000192 -0.099999999999998992
0.55000001192092829 0.12500000000000161 -0.074999999999998374
0.55000001192092873 0.12500000000000133 -0.049999999999997762
0.55000001192092907 0.125000000000001 -0.02500000000000268
0.55000000000000004 0.12500000186264584 0
0.55000000000000004 0.15000000223517643 -0.20000000000000001
0.55000001192092829 0.15000000000000263 -0.17499999999999752
0.55000001192092973 0.15000000000000302 -0.15000000000000066
0.5500000119209294 0.15000000000000274 -0.12499999999999997
0.55000001192092907 0.15000000000000252 -0.099999999999999339
0.55000001192092873 0.15000000000000224 -0.074999999999998665
0.55000001192092829 0.15000000000000197 -0.04999999999999799
0.55000001192092973 0.15000000000000174 -0.025000000000002923
0.55000000000000004 0.15000000223517559 0
0.55000000000000004 0.17500000260770587 -0.20000000000000001
0.55000001192092973 0.17499999999999774 -0.17499999999999713
0.55000001192092873 0.17499999999999813 -0.15000000000000113
0.5500000119209294 0.17499999999999788 -0.12500000000000039
0.55000001192092829 0.17499999999999755 -0.099999999999999686
0.55000001192092907 0.17499999999999732 -0.074999999999998943
0.55000001192092973 0.17499999999999705 -0.04999999999999824
0.55000001192092873 0.17499999999999671 -0.025000000000003166
0.55000000000000004 0.17500000260770532 0
0.55000001192092896 0.20000000298023224 -0.20000000298023224
0.55000000000000004 0.20000000000000001 -0.17500000260770548
0.55000000000000004 0.20000000000000001 -0.15000000223517571
0.55000000000000004 0.20000000000000001 -0.1250000018626459
0.55000000000000004 0.20000000000000001 -0.10000000149011612
0.55000000000000004 0.20000000000000001 -0.075000001117586326
0.55000000000000004 0.20000000000000001 -0.050000000745056554
0.55000000000000004 0.20000000000000001 -0.025000000372526761
0.55000001192092896 0.20000000298023224 0
0.75 -1.2246467991474e-17 -0.20000000000000001
0.77500000000000002 -9.184850993605497e-18 -0.20000000000000001
0.75 0.025000000372529044 -0.20000000000000001
0.77500000000000002 0.025000000000000393 -0.20000000298023216
0.75 -1.2246467991474e-17 -0.17499999999999999
0.77500000000000013 -9.1848480610103378e-18 -0.17499999999999963
0.75 0.025000000000000008 -0.17499999999999999
0.77500000596046481 0.025000000372529866 -0.17500000260770227
0.75 -1.2246467991474e-17 -0.15000000000000002
0.77500000000000002 -9.1848480610105274e-18 -0.1499999999999993
0.75 0.025000000000000008 -0.15000000000000008
0.77500000596046481 0.02500000037253048 -0.15000000223517337
0.75 -1.2246467991474e-17 -0.125
0.77499999999999991 -9.1848480610105197e-18 -0.12499999999999895
0.75 0.025000000000000008 -0.125
0.7750000059604647 0.025000000372530674 -0.12500000186264387
0.75 -1.2246467991474e-17 -0.10000000000000003
0.77499999999999991 -9.1848480610105073e-18 -0.09999999999999859
0.75 0.025000000000000001 -0.10000000000000003
0.77500000596046437 0.025000000372530914 -0.10000000149011444
0.75 -1.2246467991474001e-17 -0.075000000000000011
0.77499999999999991 -9.1848480610105012e-18 -0.074999999999998221
0.75 0.025000000000000001 -0.075000000000000039
0.77500000596046426 0.025000000372531268 -0.075000001117584938
0.75 -1.2246467991474e-17 -0.050000000000000003
0.77500000000000013 -9.1848480610104888e-18 -0.049999999999997873
0.75 0.024999999999999998 -0.05000000000000001
0.77500000596046437 0.025000000372531639 -0.050000000745055513
0.75 -1.2246467991474e-17 -0.025000000000000001
0.77500000000000013 -9.1848480610104811e-18 -0.024999999999997514
0.75 0.024999999999999994 -0.025000000000000005
0.77500000596046503 0.025000000372532114 -0.025000000372531448
0.75 -1.2246467698671066e-17 0
0.77500000596046448 -9.1848502636591246e-18 0
0.75 0.024999999999999988 0
0.77499999999999991 0.024999999999997864 0
0.75 0.050000000745058081 -0.20000000000000001
0.77500000000000002 0.050000000000000759 -0.20000000298023229
0.75 0.050000000000000017 -0.17499999999999999
0.77500000596046492 0.050000000745058865 -0.17500000260770177
0.75 0.050000000000000017 -0.15000000000000002
0.77500000596046437 0.050000000745059066 -0.15000000223517332
0.75 0.050000000000000017 -0.125
0.7750000059604647 0.05000000074505867 -0.12500000186264376
0.75 0.050000000000000017 -0.10000000000000005
0.77500000596046503 0.050000000745058268 -0.10000000149011426
0.75 0.050000000000000003 -0.075000000000000011
0.77500000596046448 0.0500000007450579 -0.075000001117584661
0.75 0.049999999999999996 -0.050000000000000017
0.77500000596046492 0.050000000745057477 -0.050000000745055159
0.75 0.049999999999999989 -0.025000000000000008
0.77500000596046437 0.050000000745057102 -0.025000000372531056
0.75 0.049999999999999989 0
0.77500000000000002 0.049999999999998559 0
0.75 0.075000001117587145 -0.20000000000000001
0.77500000000000002 0.075000000000001135 -0.20000000298023235
0.75 0.075000000000000067 -0.17500000000000004
0.77500000596046492 0.075000001117588366 -0.1750000026077016
0.75 0.075000000000000053 -0.15000000000000005
0.77500000596046459 0.075000001117588672 -0.15000000223517373
0.75 0.075000000000000025 -0.12500000000000006
0.77500000596046481 0.075000001117588255 -0.12500000186264421
0.75 0.075000000000000053 -0.10000000000000006
0.77500000596046481 0.075000001117587867 -0.10000000149011458
0.75 0.075000000000000011 -0.075000000000000053
0.77500000596046481 0.075000001117587603 -0.07500000111758498
0.75 0.075000000000000011 -0.050000000000000031
0.77500000596046503 0.075000001117587159 -0.05000000074505543
0.75 0.074999999999999997 -0.025000000000000008
0.77500000596046503 0.075000001117586867 -0.025000000372531327
0.75 0.074999999999999997 0
0.77499999999999991 0.074999999999999317 0
0.75 0.10000000149011619 -0.20000000000000001
0.77500000000000013 0.10000000000000152 -0.20000000298023246
0.75 0.10000000000000006 -0.1750000000000001
0.7750000059604647 0.10000000149011784 -0.17500000260770143
0.75 0.10000000000000006 -0.15000000000000008
0.77500000596046414 0.10000000149011821 -0.15000000223517421
0.75 0.10000000000000006 -0.12500000000000006
0.77500000596046492 0.10000000149011778 -0.12500000186264465
0.75 0.10000000000000005 -0.10000000000000007
0.77500000596046448 0.10000000149011744 -0.10000000149011494
0.75 0.10000000000000003 -0.075000000000000025
0.77500000596046492 0.10000000149011722 -0.075000001117585272
0.75 0.10000000000000002 -0.050000000000000031
0.77500000596046459 0.10000000149011677 -0.05000000074505568
0.75 0.099999999999999992 -0.025000000000000012
0.77500000596046426 0.10000000149011655 -0.025000000372531597
0.75 0.099999999999999992 0
0.77499999999999991 0.099999999999999978 0
0.75 0.12500000186264523 -0.19999999999999998
0.77500000000000002 0.12500000000000192 -0.20000000298023207
0.75 0.12500000000000006 -0.17500000000000004
0.77500000596046448 0.12500000186264731 -0.17500000260770068
0.75 0.12500000000000008 -0.15000000000000008
0.77500000596046481 0.12500000186264781 -0.15000000223517435
0.75 0.12500000000000006 -0.12500000000000006
0.7750000059604647 0.1250000018626474 -0.12500000186264471
0.75 0.12500000000000006 -0.10000000000000003
0.77500000596046503 0.12500000186264704 -0.10000000149011506
0.75 0.12500000000000003 -0.075000000000000053
0.77500000596046437 0.12500000186264687 -0.075000001117585466
0.75 0.125 -0.050000000000000017
0.77500000596046437 0.12500000186264645 -0.050000000745055846
0.75 0.125 -0.025000000000000008
0.77500000596046459 0.12500000186264629 -0.025000000372531816
0.75 0.125 0
0.77499999999999991 0.12500000000000072 0
0.75 0.15000000223517432 -0.20000000000000001
0.77500000000000013 0.15000000000000233 -0.20000000298023216
0.75 0.15000000000000016 -0.17500000000000013
0.77500000596046459 0.15000000223517682 -0.17500000260770035
0.75 0.15000000000000011 -0.15000000000000011
0.77500000596046492 0.15000000223517729 -0.15000000223517476
0.75 0.15000000000000011 -0.12500000000000011
0.77500000596046492 0.15000000223517695 -0.12500000186264518
0.75 0.15000000000000008 -0.10000000000000007
0.77500000596046492 0.15000000223517654 -0.10000000149011547
0.75 0.15000000000000008 -0.075000000000000094
0.77500000596046437 0.15000000223517651 -0.075000001117585771
0.75 0.15000000000000002 -0.050000000000000037
0.77500000596046437 0.15000000223517607 -0.050000000745056117
0.75 0.15000000000000008 -0.025000000000000022
0.77500000596046525 0.15000000223517604 -0.025000000372532093
0.75 0.15000000000000002 0
0.77500000000000024 0.15000000000000147 0
0.75 0.17500000260770338 -0.20000000000000001
0.77500000000000036 0.17500000000000238 -0.20000000298023224
0.75 0.17500000000000013 -0.17500000000000013
0.77500000596046548 0.17500000260770057 -0.17500000260769996
0.75 0.17500000000000016 -0.15000000000000013
0.77500000596046492 0.17500000260770129 -0.15000000223517529
0.75 0.1750000000000001 -0.12500000000000011
0.77500000596046514 0.17500000260770088 -0.12500000186264565
0.75 0.17500000000000004 -0.1000000000000001
0.77500000596046459 0.17500000260770054 -0.10000000149011587
0.75 0.17500000000000004 -0.075000000000000067
0.77500000596046492 0.17500000260770052 -0.075000001117586076
0.75 0.17500000000000007 -0.050000000000000058
0.77500000596046525 0.17500000260770007 -0.050000000745056415
0.75 0.17500000000000002 -0.025000000000000019
0.7750000059604647 0.17500000260770013 -0.025000000372532371
0.75 0.17499999999999999 0
0.77500000000000024 0.17500000000000215 0
0.75 0.20000000298023224 -0.20000000298023224
0.77500000596046437 0.20000000000000001 -0.20000000000000001
0.75 0.20000000000000001 -0.17500000260770338
0.77500000000000013 0.20000000298023218 -0.17500000000000196
0.75 0.20000000000000001 -0.15000000223517432
0.77500000000000013 0.20000000298023243 -0.1500000000000016
0.75 0.20000000000000001 -0.12500000186264529
0.77500000000000024 0.20000000298023224 -0.12500000000000089
0.75 0.20000000000000001 -0.10000000149011622
0.77500000000000024 0.2000000029802321 -0.1000000000000001
0.75 0.20000000000000001 -0.075000001117587173
0.77500000000000024 0.20000000298023235 -0.074999999999999331
0.75 0.20000000000000001 -0.050000000745058115
0.77500000000000036 0.20000000298023216 -0.049999999999998615
0.75 0.20000000000000001 -0.025000000372529054
0.77500000000000036 0.20000000298023243 -0.024999999999997934
0.75 0.20000000000000001 0
0.77500000596046459 0.20000000000000001 0
0.79999999999999993 -6.1232339957370067e-18 -0.20000000000000001
0.79999999999999993 0.025000000000000779 -0.20000000298023216
0.79999999999999993 -6.1232318662927801e-18 -0.1749999999999993
0.80000001192092907 0.025000000372530688 -0.1750000026077014
0.79999999999999982 -6.1232318662927771e-18 -0.14999999999999861
0.8000000119209294 0.025000000372531889 -0.15000000223517254
0.80000000000000004 -6.1232318662927755e-18 -0.12499999999999786
0.8000000119209294 0.025000000372532329 -0.1250000018626426
0.79999999999999982 -6.123231866292774e-18 -0.099999999999997174
0.80000001192092873 0.025000000372532825 -0.1000000014901128
0.80000000000000004 -6.1232318662927701e-18 -0.074999999999996445
0.8000000119209284 0.025000000372533492 -0.075000001117582885
0.79999999999999993 -6.123231866292767e-18 -0.049999999999995742
0.80000001192092818 0.025000000372534227 -0.050000000745053015
0.79999999999999993 -6.1232318662927663e-18 -0.024999999999995026
0.8000000119209294 0.025000000372535129 -0.025000000372533887
0.80000001192092896 -6.1232325358442497e-18 0
0.79999999999999982 0.024999999999995727 0
0.80000000000000004 0.050000000000001502 -0.20000000298023224
0.80000001192092973 0.05000000074505969 -0.17500000260770035
0.80000001192092851 0.05000000074506001 -0.15000000223517232
0.80000001192092951 0.05000000074505933 -0.12500000186264229
0.80000001192093007 0.050000000745058518 -0.10000000149011228
0.80000001192092929 0.050000000745057796 -0.075000001117582205
0.80000001192092951 0.050000000745056887 -0.050000000745052217
0.80000001192092873 0.050000000745056075 -0.025000000372533065
0.80000000000000004 0.049999999999997158 0
0.79999999999999982 0.075000000000002245 -0.20000000298023235
0.80000001192092918 0.075000001117589615 -0.17500000260769999
0.80000001192092896 0.075000001117590087 -0.1500000022351731
0.8000000119209294 0.075000001117589435 -0.12500000186264307
0.80000001192092929 0.075000001117588672 -0.10000000149011296
0.80000001192092918 0.075000001117588019 -0.075000001117582801
0.8000000119209294 0.075000001117587187 -0.050000000745052738
0.8000000119209294 0.075000001117586465 -0.025000000372533603
0.79999999999999982 0.074999999999998596 0
0.79999999999999982 0.100000000000003 -0.20000000298023246
0.80000001192092896 0.10000000149011949 -0.17500000260769957
0.80000001192092784 0.10000000149012013 -0.15000000223517393
0.80000001192092929 0.10000000149011957 -0.12500000186264382
0.80000001192092862 0.10000000149011883 -0.10000000149011362
0.80000001192092962 0.10000000149011823 -0.075000001117583384
0.80000001192092884 0.10000000149011745 -0.05000000074505323
0.80000001192092818 0.10000000149011684 -0.025000000372534133
0.80000000000000004 0.099999999999999992 0
0.80000000000000004 0.12500000000000375 -0.20000000298023207
0.80000001192092873 0.12500000186264934 -0.17500000260769849
0.80000001192092896 0.12500000186265017 -0.15000000223517451
0.80000001192092951 0.1250000018626497 -0.12500000186264423
0.80000001192092995 0.12500000186264898 -0.10000000149011408
0.80000001192092862 0.12500000186264848 -0.075000001117583856
0.8000000119209284 0.12500000186264773 -0.050000000745053626
0.80000001192092918 0.1250000018626472 -0.025000000372534612
0.80000000000000004 0.12500000000000144 0
0.79999999999999993 0.15000000000000449 -0.20000000298023216
0.80000001192092829 0.15000000223517926 -0.17500000260769774
0.80000001192092951 0.15000000223518023 -0.15000000223517532
0.80000001192092918 0.15000000223517979 -0.12500000186264507
0.80000001192092918 0.15000000223517906 -0.1000000014901148
0.8000000119209284 0.1500000022351787 -0.075000001117584453
0.80000001192092807 0.15000000223517801 -0.05000000074505416
0.8000000119209294 0.15000000223517762 -0.025000000372535164
0.79999999999999982 0.15000000000000285 0
0.79999999999999982 0.17500000000000487 -0.20000000298023224
0.80000001192092962 0.17500000260769805 -0.17500000260769699
0.80000001192092829 0.17500000260769913 -0.15000000223517621
0.80000001192092929 0.17500000260769877 -0.1250000018626459
0.80000001192092829 0.17500000260769807 -0.10000000149011552
0.80000001192092884 0.17500000260769771 -0.075000001117585063
0.8000000119209294 0.17500000260769696 -0.050000000745054687
0.80000001192092851 0.17500000260769663 -0.025000000372535705
0.79999999999999993 0.17500000000000426 0
0.80000001192092896 0.20000000000000001 -0.20000000000000001
0.80000000000000004 0.20000000298023207 -0.17500000000000412
0.79999999999999982 0.20000000298023229 -0.15000000000000299
0.80000000000000016 0.20000000298023243 -0.12500000000000155
0.80000000000000004 0.20000000298023218 -0.10000000000000013
0.80000000000000016 0.20000000298023235 -0.074999999999998637
0.79999999999999993 0.20000000298023207 -0.049999999999997172
0.80000000000000004 0.20000000298023224 -0.024999999999995859
0.80000001192092896 0.20000000000000001 0
0.82499999999999996 -3.0616169978685041e-18 -0.20000000000000001
0.82500000000000007 0.025000000000001112 -0.20000000298023216
0.82500000000000007 -3.0616168192159884e-18 -0.17499999999999896
0.82500001788139388 0.025000000372531524 -0.17500000260770068
0.82500000000000007 -3.0616168192159769e-18 -0.14999999999999789
0.82500001788139443 0.025000000372533249 -0.15000000223517168
0.82499999999999996 -3.0616168192159838e-18 -0.12499999999999681
0.8250000178813941 0.025000000372533897 -0.12500000186264143
0.82499999999999984 -3.06161681921599e-18 -0.099999999999995759
0.8250000178813931 0.025000000372534713 -0.1000000014901111
0.82499999999999996 -3.0616168192159977e-18 -0.074999999999994682
0.82500001788139266 0.025000000372535702 -0.075000001117580789
0.82500000000000007 -3.0616168192160015e-18 -0.049999999999993626
0.82500001788139254 0.02500000037253686 -0.05000000074505051
0.82500000000000007 -3.06161681921601e-18 -0.024999999999992542
0.82500001788139443 0.025000000372538148 -0.025000000372536323
0.82500001788139343 -3.061614808029374e-18 0
0.82499999999999996 0.024999999999993597 0
0.82499999999999984 0.050000000000002189 -0.20000000298023224
0.82500001788139421 0.050000000745060565 -0.17500000260769896
0.82500001788139266 0.050000000745060891 -0.15000000223517138
0.82500001788139399 0.050000000745059836 -0.12500000186264087
0.82500001788139465 0.050000000745058747 -0.10000000149011033
0.82500001788139343 0.050000000745057609 -0.075000001117579804
0.82500001788139432 0.050000000745056415 -0.050000000745049289
0.82500001788139299 0.050000000745055076 -0.025000000372535077
0.82499999999999996 0.049999999999995728 0
0.82500000000000007 0.0750000000000033 -0.20000000298023235
0.82500001788139399 0.075000001117590948 -0.17500000260769843
0.82500001788139377 0.075000001117591447 -0.15000000223517249
0.82500001788139388 0.075000001117590434 -0.12500000186264193
0.82500001788139377 0.075000001117589477 -0.10000000149011132
0.82500001788139388 0.075000001117588436 -0.075000001117580636
0.82500001788139399 0.075000001117587339 -0.050000000745050031
0.8250000178813941 0.075000001117586063 -0.025000000372535872
0.82499999999999996 0.07499999999999786 0
0.82499999999999996 0.10000000000000439 -0.20000000298023243
0.82500001788139343 0.1000000014901213 -0.17500000260769766
0.8250000178813921 0.10000000149012189 -0.15000000223517365
0.8250000178813941 0.10000000149012109 -0.12500000186264298
0.82500001788139277 0.10000000149012019 -0.10000000149011223
0.82500001788139443 0.10000000149011924 -0.075000001117581469
0.82500001788139343 0.10000000149011833 -0.050000000745050767
0.82500001788139232 0.10000000149011709 -0.025000000372536652
0.82499999999999996 0.10000000000000001 0
0.82499999999999973 0.12500000000000547 -0.20000000298023207
0.82500001788139277 0.12500000186265164 -0.17500000260769641
0.82500001788139332 0.12500000186265239 -0.15000000223517465
0.82500001788139399 0.12500000186265164 -0.12500000186264379
0.82500001788139421 0.12500000186265089 -0.10000000149011301
0.82500001788139221 0.12500000186265003 -0.075000001117582205
0.82500001788139288 0.12500000186264915 -0.050000000745051412
0.82500001788139388 0.12500000186264812 -0.025000000372537402
0.82500000000000018 0.12500000000000208 0
0.82499999999999996 0.1500000000000066 -0.20000000298023218
0.82500001788139232 0.15000000223518209 -0.17500000260769524
0.82500001788139443 0.15000000223518295 -0.1500000022351759
0.82500001788139377 0.15000000223518226 -0.12500000186264498
0.8250000178813931 0.15000000223518162 -0.10000000149011407
0.82500001788139266 0.15000000223518098 -0.075000001117583079
0.82500001788139232 0.15000000223518017 -0.050000000745052189
0.82500001788139454 0.15000000223517912 -0.025000000372538217
0.82500000000000018 0.1500000000000043 0
0.82499999999999973 0.17500000000000732 -0.20000000298023227
0.82500001788139399 0.17500000260769591 -0.17500000260769397
0.82500001788139266 0.17500000260769696 -0.15000000223517723
0.82500001788139354 0.17500000260769627 -0.1250000018626462
0.82500001788139199 0.17500000260769571 -0.10000000149011508
0.82500001788139343 0.17500000260769497 -0.075000001117584023
0.82500001788139421 0.17500000260769424 -0.050000000745052967
0.82500001788139299 0.17500000260769327 -0.025000000372539025
0.82500000000000018 0.1750000000000064 0
0.82500001788139365 0.20000000000000001 -0.20000000000000001
0.82499999999999984 0.20000000298023243 -0.17500000000000626
0.82499999999999984 0.20000000298023207 -0.15000000000000438
0.82499999999999996 0.20000000298023218 -0.12500000000000222
0.82499999999999996 0.20000000298023227 -0.10000000000000003
0.82499999999999996 0.20000000298023235 -0.074999999999997888
0.82499999999999996 0.20000000298023243 -0.049999999999995694
0.82499999999999996 0.2000000029802321 -0.024999999999993763
0.82500001788139354 0.20000000000000001 0
0.84999999999999998 0 -0.20000000000000001
0.84999999999999998 0.025000000372530473 -0.20000000000000001
0.84999999999999998 0 -0.1749999999999986
0.85000002384185824 0.02500000000000327 -0.1749999999999968
0.84999999999999998 0 -0.14999999999999716
0.85000002384185913 0.025000000000005632 -0.14999999999999677
0.85000000000000009 0 -0.12499999999999574
0.8500000238418588 0.025000000000006486 -0.12499999999999506
0.84999999999999998 0 -0.099999999999994316
0.85000002384185758 0.025000000000007561 -0.099999999999993358
0.84999999999999998 0 -0.07499999999999292
0.85000002384185691 0.025000000000008873 -0.074999999999991657
0.85000000000000009 0 -0.049999999999991503
0.85000002384185658 0.025000000000010417 -0.049999999999989948
0.84999999999999998 0 -0.024999999999990054
0.85000002384185913 0.025000000000012193 -0.025000000000009692
0.85000002384185791 0 0
0.84999999999999987 0.025000000372520498 0
0.84999999999999998 0.050000000745060946 -0.20000000000000001
0.85000002384185913 0.050000000000003257 -0.17499999999999441
0.85000002384185702 0.050000000000003812 -0.14999999999999625
0.8500000238418588 0.050000000000002383 -0.12499999999999427
0.85000002384185969 0.050000000000000919 -0.099999999999992262
0.85000002384185791 0.049999999999999357 -0.074999999999990297
0.85000002384185924 0.049999999999997741 -0.049999999999988311
0.85000002384185724 0.049999999999996061 -0.025000000000007981
0.84999999999999998 0.05000000074505237 0
0.84999999999999998 0.075000001117591419 -0.20000000000000001
0.85000002384185858 0.075000000000005007 -0.17499999999999361
0.85000002384185835 0.075000000000005826 -0.14999999999999769
0.85000002384185858 0.075000000000004508 -0.12499999999999559
0.85000002384185858 0.075000000000003161 -0.099999999999993455
0.85000002384185858 0.07500000000000176 -0.074999999999991379
0.85000002384185869 0.075000000000000261 -0.049999999999989247
0.8500000238418588 0.074999999999998748 -0.025000000000008973
0.84999999999999987 0.075000001117584245 0
0.84999999999999998 0.10000000149012189 -0.20000000000000001
0.85000002384185791 0.10000000000000672 -0.17499999999999255
0.85000002384185624 0.1000000000000078 -0.14999999999999913
0.8500000238418588 0.10000000000000661 -0.12499999999999693
0.85000002384185702 0.10000000000000536 -0.099999999999994663
0.85000002384185958 0.10000000000000409 -0.07499999999999242
0.85000002384185791 0.10000000000000277 -0.049999999999990191
0.85000002384185647 0.10000000000000141 -0.025000000000009962
0.84999999999999998 0.10000000149011612 0
0.84999999999999998 0.12500000186265237 -0.20000000000000001
0.85000002384185713 0.12500000000000844 -0.17499999999999122
0.85000002384185791 0.12500000000000977 -0.15000000000000074
0.8500000238418588 0.12500000000000869 -0.12499999999999833
0.85000002384185924 0.12500000000000763 -0.099999999999995939
0.85000002384185658 0.12500000000000647 -0.074999999999993558
0.85000002384185724 0.1250000000000053 -0.049999999999991177
0.85000002384185813 0.12500000000000414 -0.025000000000010979
0.84999999999999998 0.12500000186264801 0
0.84999999999999998 0.15000000223518284 -0.20000000000000001
0.85000002384185647 0.15000000000001024 -0.17499999999998969
0.85000002384185924 0.15000000000001182 -0.15000000000000238
0.85000002384185858 0.15000000000001085 -0.12499999999999981
0.85000002384185791 0.1500000000000099 -0.099999999999997258
0.85000002384185736 0.15000000000000888 -0.074999999999994696
0.85000002384185647 0.15000000000000785 -0.049999999999992169
0.85000002384185946 0.15000000000000682 -0.025000000000012006
0.84999999999999998 0.1500000022351799 0
0.84999999999999998 0.17500000260771331 -0.20000000000000001
0.85000002384185924 0.17499999999999044 -0.17499999999998797
0.85000002384185713 0.17499999999999211 -0.15000000000000402
0.8500000238418588 0.17499999999999111 -0.12500000000000133
0.85000002384185624 0.17499999999999011 -0.09999999999999859
0.85000002384185813 0.17499999999998903 -0.074999999999995876
0.85000002384185946 0.17499999999998794 -0.049999999999993182
0.85000002384185736 0.17499999999998697 -0.025000000000013029
0.84999999999999998 0.17500000260771176 0
0.85000002384185791 0.20000000298023224 -0.20000000298023224
0.84999999999999998 0.20000000000000001 -0.17500000260771187
0.84999999999999998 0.20000000000000001 -0.15000000223517995
0.84999999999999998 0.20000000000000001 -0.12500000186264804
0.84999999999999998 0.20000000000000001 -0.10000000149011612
0.85000000000000009 0.20000000000000001 -0.075000001117584203
0.84999999999999998 0.20000000000000001 -0.050000000745052287
0.85000000000000009 0.20000000000000001 -0.02500000037252037
0.85000002384185791 0.20000000298023224 0
))
(12 (0 1 200 0 0))
(12 (11 1 100 1 4))
(12 (12 101 200 1 4))
(13 (0 1 700 0 0))
(0 "Interior faces of zone SOLID1")
(13 (13 1 280 2 4)(
3 4 8 7 1 9
2 6 8 4 1 41
5 7 8 6 1 2
7 8 c b 2 a
6 a c 8 2 42
9 b c a 2 3
b c 10 f 3 b
a e 10 c 3 43
d f 10 e 3 4
f 10 14 13 4 c
e 12 14 10 4 44
11 13 14 12 4 5
13 14 18 17 5 d
12 16 18 14 5 45
15 17 18 16 5 6
17 18 1c 1b 6 e
16 1a 1c 18 6 46
19 1b 1c 1a 6 7
1b 1c 20 1f 7 f
1a 1e 20 1c 7 47
1d 1f 20 1e 7 8
1f 20 24 23 8 10
1e 22 24 20 8 48
25 26 28 27 9 11
4 8 28 26 9 49
7 27 28 8 9 a
27 28 2a 29 a 12
8 c 2a 28 a 4a
b 29 2a c a b
29 2a 2c 2b b 13
c 10 2c 2a b 4b
f 2b 2c 10 b c
2b 2c 2e 2d c 14
10 14 2e 2c c 4c
13 2d 2e 14 c d
2d 2e 30 2f d 15
14 18 30 2e d 4d
17 2f 30 18 d e
2f 30 32 31 e 16
18 1c 32 30 e 4e
1b 31 32 1c e f
31 32 34 33 f 17
1c 20 34 32 f 4f
1f 33 34 20 f 10
33 34 36 35 10 18
20 24 36 34 10 50
37 38 3a 39 11 19
26 28 3a 38 11 51
27 39 3a 28 11 12
39 3a 3c 3b 12 1a
28 2a 3c 3a 12 52
29 3b 3c 2a 12 13
3b 3c 3e 3d 13 1b
2a 2c 3e 3c 13 53
2b 3d 3e 2c 13 14
3d 3e 40 3f 14 1c
2c 2e 40 3e 14 54
2d 3f 40 2e 14 15
3f 40 42 41 15 1d
2e 30 42 40 15 55
2f 41 42 30 15 16
41 42 44 43 16 1e
30 32 44 42 16 56
31 43 44 32 16 17
43 44 46 45 17 1f
32 34 46 44 17 57
33 45 46 34 17 18
45 46 48 47 18 20
34 36 48 46 18 58
49 4a 4c 4b 19 21
38 3a 4c 4a 19 59
39 4b 4c 3a 19 1a
4b 4c 4e 4d 1a 22
3a 3c 4e 4c 1a 5a
3b 4d 4e 3c 1a 1b
4d 4e 50 4f 1b 23
3c 3e 50 4e 1b 5b
3d 4f 50 3e 1b 1c
4f 50 52 51 1c 24
3e 40 52 50 1c 5c
3f 51 52 40 1c 1d
51 52 54 53 1d 25
40 42 54 52 1d 5d
41 53 54 42 1d 1e
53 54 56 55 1e 26
42 44 56 54 1e 5e
43 55 56 44 1e 1f
55 56 58 57 1f 27
44 46 58 56 1f 5f
45 57 58 46 1f 20
57 58 5a 59 20 28
46 48 5a 58 20 60
5b 5c 5e 5d 21 29
4a 4c 5e 5c 21 61
4b 5d 5e 4c 21 22
5d 5e 60 5f 22 2a
4c 4e 60 5e 22 62
4d 5f 60 4e 22 23
5f 60 62 61 23 2b
4e 50 62 60 23 63
4f 61 62 50 23 24
61 62 64 63 24 2c
50 52 64 62 24 64
51 63 64 52 24 25
63 64 66 65 25 2d
52 54 66 64 25 65
53 65 66 54 25 26
65 66 68 67 26 2e
54 56 68 66 26 66
55 67 68 56 26 27
67 68 6a 69 27 2f
56 58 6a 68 27 67
57 69 6a 58 27 28
69 6a 6c 6b 28 30
58 5a 6c 6a 28 68
6d 6e 70 6f 29 31
5c 5e 70 6e 29 69
5d 6f 70 5e 29 2a
6f 70 72 71 2a 32
5e 60 72 70 2a 6a
5f 71 72 60 2a 2b
71 72 74 73 2b 33
60 62 74 72 2b 6b
61 73 74 62 2b 2c
73 74 76 75 2c 34
62 64 76 74 2c 6c
63 75 76 64 2c 2d
75 76 78 77 2d 35
64 66 78 76 2d 6d
65 77 78 66 2d 2e
77 78 7a 79 2e 36
66 68 7a 78 2e 6e
67 79 7a 68 2e 2f
79 7a 7c 7b 2f 37
68 6a 7c 7a 2f 6f
69 7b 7c 6a 2f 30
7b 7c 7e 7d 30 38
6a 6c 7e 7c 30 70
7f 80 82 81 31 39
6e 70 82 80 31 71
6f 81 82 70 31 32
81 82 84 83 32 3a
70 72 84 82 32 72
71 83 84 72 32 33
83 84 86 85 33 3b
72 74 86 84 33 73
73 85 86 74 33 34
85 86 88 87 34 3c
74 76 88 86 34 74
75 87 88 76 34 35
87 88 8a 89 35 3d
76 78 8a 88 35 75
77 89 8a 78 35 36
89 8a 8c 8b 36 3e
78 7a 8c 8a 36 76
79 8b 8c 7a 36 37
8b 8c 8e 8d 37 3f
7a 7c 8e 8c 37 77
7b 8d 8e 7c 37 38
8d 8e 90 8f 38 40
7c 7e 90 8e 38 78
80 82 94 92 39 79
81 93 94 82 39 3a
82 84 96 94 3a 7a
83 95 96 84 3a 3b
84 86 98 96 3b 7b
85 97 98 86 3b 3c
86 88 9a 98 3c 7c
87 99 9a 88 3c 3d
88 8a 9c 9a 3d 7d
89 9b 9c 8a 3d 3e
8a 8c 9e 9c 3e 7e
8b 9d 9e 8c 3e 3f
8c 8e a0 9e 3f 7f
8d 9f a0 8e 3f 40
8e 90 a2 a0 40 80
4 a4 a6 8 41 49
a3 a5 a6 a4 41 81
6 8 a6 a5 41 42
8 a6 a8 c 42 4a
a5 a7 a8 a6 42 82
a c a8 a7 42 43
c a8 aa 10 43 4b
a7 a9 aa a8 43 83
e 10 aa a9 43 44
10 aa ac 14 44 4c
a9 ab ac aa 44 84
12 14 ac ab 44 45
14 ac ae 18 45 4d
ab ad ae ac 45 85
16 18 ae ad 45 46
18 ae b0 1c 46 4e
ad af b0 ae 46 86
1a 1c b0 af 46 47
1c b0 b2 20 47 4f
af b1 b2 b0 47 87
1e 20 b2 b1 47 48
20 b2 b4 24 48 50
b1 b3 b4 b2 48 88
26 b5 b6 28 49 51
a4 a6 b6 b5 49 89
8 28 b6 a6 49 4a
28 b6 b7 2a 4a 52
a6 a8 b7 b6 4a 8a
c 2a b7 a8 4a 4b
2a b7 b8 2c 4b 53
a8 aa b8 b7 4b 8b
10 2c b8 aa 4b 4c
2c b8 b9 2e 4c 54
aa ac b9 b8 4c 8c
14 2e b9 ac 4c 4d
2e b9 ba 30 4d 55
ac ae ba b9 4d 8d
18 30 ba ae 4d 4e
30 ba bb 32 4e 56
ae b0 bb ba 4e 8e
1c 32 bb b0 4e 4f
32 bb bc 34 4f 57
b0 b2 bc bb 4f 8f
20 34 bc b2 4f 50
34 bc bd 36 50 58
b2 b4 bd bc 50 90
38 be bf 3a 51 59
b5 b6 bf be 51 91
28 3a bf b6 51 52
3a bf c0 3c 52 5a
b6 b7 c0 bf 52 92
2a 3c c0 b7 52 53
3c c0 c1 3e 53 5b
b7 b8 c1 c0 53 93
2c 3e c1 b8 53 54
3e c1 c2 40 54 5c
b8 b9 c2 c1 54 94
2e 40 c2 b9 54 55
40 c2 c3 42 55 5d
b9 ba c3 c2 55 95
30 42 c3 ba 55 56
42 c3 c4 44 56 5e
ba bb c4 c3 56 96
32 44 c4 bb 56 57
44 c4 c5 46 57 5f
bb bc c5 c4 57 97
34 46 c5 bc 57 58
46 c5 c6 48 58 60
bc bd c6 c5 58 98
4a c7 c8 4c 59 61
be bf c8 c7 59 99
3a 4c c8 bf 59 5a
4c c8 c9 4e 5a 62
bf c0 c9 c8 5a 9a
3c 4e c9 c0 5a 5b
4e c9 ca 50 5b 63
c0 c1 ca c9 5b 9b
3e 50 ca c1 5b 5c
50 ca cb 52 5c 64
c1 c2 cb ca 5c 9c
40 52 cb c2 5c 5d
52 cb cc 54 5d 65
c2 c3 cc cb 5d 9d
42 54 cc c3 5d 5e
54 cc cd 56 5e 66
c3 c4 cd cc 5e 9e
44 56 cd c4 5e 5f
56 cd ce 58 5f 67
c4 c5 ce cd 5f 9f
46 58 ce c5 5f 60
58 ce cf 5a 60 68
c5 c6 cf ce 60 a0
5c d0 d1 5e 61 69
c7 c8 d1 d0 61 a1
4c 5e d1 c8 61 62
5e d1 d2 60 62 6a
c8 c9 d2 d1 62 a2
4e 60 d2 c9 62 63
60 d2 d3 62 63 6b
c9 ca d3 d2 63 a3
50 62 d3 ca 63 64
62 d3 d4 64 64 6c
ca cb d4 d3 64 a4
52 64 d4 cb 64 65
64 d4 d5 66 65 6d
cb cc d5 d4 65 a5
54 66 d5 cc 65 66
66 d5 d6 68 66 6e
cc cd d6 d5 66 a6
56 68 d6 cd 66 67
68 d6 d7 6a 67 6f
cd ce d7 d6 67 a7
58 6a d7 ce 67 68
6a d7 d8 6c 68 70
ce cf d8 d7 68 a8
6e d9 da 70 69 71
d0 d1 da d9 69 a9
5e 70 da d1 69 6a
70 da db 72 6a 72
d1 d2 db da 6a aa
60 72 db d2 6a 6b
72 db dc 74 6b 73
d2 d3 dc db 6b ab
62 74 dc d3 6b 6c
74 dc dd 76 6c 74
d3 d4 dd dc 6c ac
64 76 dd d4 6c 6d
76 dd de 78 6d 75
d4 d5 de dd 6d ad
66 78 de d5 6d 6e
78 de df 7a 6e 76
d5 d6 df de 6e ae
68 7a df d6 6e 6f
7a df e0 7c 6f 77
d6 d7 e0 df 6f af
6a 7c e0 d7 6f 70
7c e0 e1 7e 70 78
d7 d8 e1 e0 70 b0
80 e2 e3 82 71 79
d9 da e3 e2 71 b1
70 82 e3 da 71 72
82 e3 e4 84 72 7a
da db e4 e3 72 b2
72 84 e4 db 72 73
84 e4 e5 86 73 7b
db dc e5 e4 73 b3
74 86 e5 dc 73 74
86 e5 e6 88 74 7c
dc dd e6 e5 74 b4
76 88 e6 dd 74 75
88 e6 e7 8a 75 7d
dd de e7 e6 75 b5
78 8a e7 de 75 76
8a e7 e8 8c 76 7e
de df e8 e7 76 b6
7a 8c e8 df 76 77
8c e8 e9 8e 77 7f
df e0 e9 e8 77 b7
7c 8e e9 e0 77 78
8e e9 ea 90 78 80
e0 e1 ea e9 78 b8
e2 e3 ec eb 79 b9
82 94 ec e3 79 7a
e3 e4 ed ec 7a ba
84 96 ed e4 7a 7b
e4 e5 ee ed 7b bb
86 98 ee e5 7b 7c
e5 e6 ef ee 7c bc
88 9a ef e6 7c 7d
e6 e7 f0 ef 7d bd
8a 9c f0 e7 7d 7e
e7 e8 f1 f0 7e be
8c 9e f1 e8 7e 7f
e8 e9 f2 f1 7f bf
8e a0 f2 e9 7f 80
e9 ea f3 f2 80 c0
a4 f5 f7 a6 81 89
f4 f6 f7 f5 81 c1
a5 a6 f7 f6 81 82
a6 f7 f9 a8 82 8a
f6 f8 f9 f7 82 c2
a7 a8 f9 f8 82 83
a8 f9 fb aa 83 8b
f8 fa fb f9 83 c3
a9 aa fb fa 83 84
aa fb fd ac 84 8c
fa fc fd fb 84 c4
ab ac fd fc 84 85
ac fd ff ae 85 8d
fc fe ff fd 85 c5
ad ae ff fe 85 86
ae ff 101 b0 86 8e
fe 100 101 ff 86 c6
af b0 101 100 86 87
b0 101 103 b2 87 8f
100 102 103 101 87 c7
b1 b2 103 102 87 88
b2 103 105 b4 88 90
102 104 105 103 88 c8
b5 106 107 b6 89 91
f5 f7 107 106 89 c9
a6 b6 107 f7 89 8a
b6 107 108 b7 8a 92
f7 f9 108 107 8a ca
a8 b7 108 f9 8a 8b
b7 108 109 b8 8b 93
f9 fb 109 108 8b cb
aa b8 109 fb 8b 8c
b8 109 10a b9 8c 94
fb fd 10a 109 8c cc
ac b9 10a fd 8c 8d
b9 10a 10b ba 8d 95
fd ff 10b 10a 8d cd
ae ba 10b ff 8d 8e
ba 10b 10c bb 8e 96
ff 101 10c 10b 8e ce
b0 bb 10c 101 8e 8f
bb 10c 10d bc 8f 97
101 103 10d 10c 8f cf
b2 bc 10d 103 8f 90
bc 10d 10e bd 90 98
103 105 10e 10d 90 d0
be 10f 110 bf 91 99
106 107 110 10f 91 d1
b6 bf 110 107 91 92
bf 110 111 c0 92 9a
107 108 111 110 92 d2
b7 c0 111 108 92 93
c0 111 112 c1 93 9b
108 109 112 111 93 d3
b8 c1 112 109 93 94
c1 112 113 c2 94 9c
109 10a 113 112 94 d4
b9 c2 113 10a 94 95
c2 113 114 c3 95 9d
10a 10b 114 113 95 d5
ba c3 114 10b 95 96
c3 114 115 c4 96 9e
10b 10c 115 114 96 d6
bb c4 115 10c 96 97
c4 115 116 c5 97 9f
10c 10d 116 115 97 d7
bc c5 116 10d 97 98
c5 116 117 c6 98 a0
10d 10e 117 116 98 d8
c7 118 119 c8 99 a1
10f 110 119 118 99 d9
bf c8 119 110 99 9a
c8 119 11a c9 9a a2
110 111 11a 119 9a da
c0 c9 11a 111 9a 9b
c9 11a 11b ca 9b a3
111 112 11b 11a 9b db
c1 ca 11b 112 9b 9c
ca 11b 11c cb 9c a4
112 113 11c 11b 9c dc
c2 cb 11c 113 9c 9d
cb 11c 11d cc 9d a5
113 114 11d 11c 9d dd
c3 cc 11d 114 9d 9e
cc 11d 11e cd 9e a6
114 115 11e 11d 9e de
c4 cd 11e 115 9e 9f
cd 11e 11f ce 9f a7
115 116 11f 11e 9f df
c5 ce 11f 116 9f a0
ce 11f 120 cf a0 a8
116 117 120 11f a0 e0
d0 121 122 d1 a1 a9
118 119 122 121 a1 e1
c8 d1 122 119 a1 a2
d1 122 123 d2 a2 aa
119 11a 123 122 a2 e2
c9 d2 123 11a a2 a3
d2 123 124 d3 a3 ab
11a 11b 124 123 a3 e3
ca d3 124 11b a3 a4
d3 124 125 d4 a4 ac
11b 11c 125 124 a4 e4
cb d4 125 11c a4 a5
d4 125 126 d5 a5 ad
11c 11d 126 125 a5 e5
cc d5 126 11d a5 a6
d5 126 127 d6 a6 ae
11d 11e 127 126 a6 e6
cd d6 127 11e a6 a7
d6 127 128 d7 a7 af
11e 11f 128 127 a7 e7
ce d7 128 11f a7 a8
d7 128 129 d8 a8 b0
11f 120 129 128 a8 e8
d9 12a 12b da a9 b1
121 122 12b 12a a9 e9
d1 da 12b 122 a9 aa
da 12b 12c db aa b2
122 123 12c 12b aa ea
d2 db 12c 123 aa ab
db 12c 12d dc ab b3
123 124 12d 12c ab eb
d3 dc 12d 124 ab ac
dc 12d 12e dd ac b4
124 125 12e 12d ac ec
d4 dd 12e 125 ac ad
dd 12e 12f de ad b5
125 126 12f 12e ad ed
d5 de 12f 126 ad ae
de 12f 130 df ae b6
126 127 130 12f ae ee
d6 df 130 127 ae af
df 130 131 e0 af b7
127 128 131 130 af ef
d7 e0 131 128 af b0
e0 131 132 e1 b0 b8
128 129 132 131 b0 f0
e2 133 134 e3 b1 b9
12a 12b 134 133 b1 f1
da e3 134 12b b1 b2
e3 134 135 e4 b2 ba
12b 12c 135 134 b2 f2
db e4 135 12c b2 b3
e4 135 136 e5 b3 bb
12c 12d 136 135 b3 f3
dc e5 136 12d b3 b4
e5 136 137 e6 b4 bc
12d 12e 137 136 b4 f4
dd e6 137 12e b4 b5
e6 137 138 e7 b5 bd
12e 12f 138 137 b5 f5
de e7 138 12f b5 b6
e7 138 139 e8 b6 be
12f 130 139 138 b6 f6
df e8 139 130 b6 b7
e8 139 13a e9 b7 bf
130 131 13a 139 b7 f7
e0 e9 13a 131 b7 b8
e9 13a 13b ea b8 c0
131 132 13b 13a b8 f8
133 134 13d 13c b9 f9
e3 ec 13d 134 b9 ba
134 135 13e 13d ba fa
e4 ed 13e 135 ba bb
135 136 13f 13e bb fb
e5 ee 13f 136 bb bc
136 137 140 13f bc fc
e6 ef 140 137 bc bd
137 138 141 140 bd fd
e7 f0 141 138 bd be
138 139 142 141 be fe
e8 f1 142 139 be bf
139 13a 143 142 bf ff
e9 f2 143 13a bf c0
13a 13b 144 143 c0 100
f5 146 148 f7 c1 c9
f6 f7 148 147 c1 c2
f7 148 14a f9 c2 ca
f8 f9 14a 149 c2 c3
f9 14a 14c fb c3 cb
fa fb 14c 14b c3 c4
fb 14c 14e fd c4 cc
fc fd 14e 14d c4 c5
fd 14e 150 ff c5 cd
fe ff 150 14f c5 c6
ff 150 152 101 c6 ce
100 101 152 151 c6 c7
101 152 154 103 c7 cf
102 103 154 153 c7 c8
103 154 156 105 c8 d0
106 157 158 107 c9 d1
f7 107 158 148 c9 ca
107 158 159 108 ca d2
f9 108 159 14a ca cb
108 159 15a 109 cb d3
fb 109 15a 14c cb cc
109 15a 15b 10a cc d4
fd 10a 15b 14e cc cd
10a 15b 15c 10b cd d5
ff 10b 15c 150 cd ce
10b 15c 15d 10c ce d6
101 10c 15d 152 ce cf
10c 15d 15e 10d cf d7
103 10d 15e 154 cf d0
10d 15e 15f 10e d0 d8
10f 160 161 110 d1 d9
107 110 161 158 d1 d2
110 161 162 111 d2 da
108 111 162 159 d2 d3
111 162 163 112 d3 db
109 112 163 15a d3 d4
112 163 164 113 d4 dc
10a 113 164 15b d4 d5
113 164 165 114 d5 dd
10b 114 165 15c d5 d6
114 165 166 115 d6 de
10c 115 166 15d d6 d7
115 166 167 116 d7 df
10d 116 167 15e d7 d8
116 167 168 117 d8 e0
118 169 16a 119 d9 e1
110 119 16a 161 d9 da
119 16a 16b 11a da e2
111 11a 16b 162 da db
11a 16b 16c 11b db e3
112 11b 16c 163 db dc
11b 16c 16d 11c dc e4
113 11c 16d 164 dc dd
11c 16d 16e 11d dd e5
114 11d 16e 165 dd de
11d 16e 16f 11e de e6
115 11e 16f 166 de df
11e 16f 170 11f df e7
116 11f 170 167 df e0
11f 170 171 120 e0 e8
121 172 173 122 e1 e9
119 122 173 16a e1 e2
122 173 174 123 e2 ea
11a 123 174 16b e2 e3
123 174 175 124 e3 eb
11b 124 175 16c e3 e4
124 175 176 125 e4 ec
11c 125 176 16d e4 e5
125 176 177 126 e5 ed
11d 126 177 16e e5 e6
126 177 178 127 e6 ee
11e 127 178 16f e6 e7
127 178 179 128 e7 ef
11f 128 179 170 e7 e8
128 179 17a 129 e8 f0
12a 17b 17c 12b e9 f1
122 12b 17c 173 e9 ea
12b 17c 17d 12c ea f2
123 12c 17d 174 ea eb
12c 17d 17e 12d eb f3
124 12d 17e 175 eb ec
12d 17e 17f 12e ec f4
125 12e 17f 176 ec ed
12e 17f 180 12f ed f5
126 12f 180 177 ed ee
12f 180 181 130 ee f6
127 130 181 178 ee ef
130 181 182 131 ef f7
128 131 182 179 ef f0
131 182 183 132 f0 f8
133 184 185 134 f1 f9
12b 134 185 17c f1 f2
134 185 186 135 f2 fa
12c 135 186 17d f2 f3
135 186 187 136 f3 fb
12d 136 187 17e f3 f4
136 187 188 137 f4 fc
12e 137 188 17f f4 f5
137 188 189 138 f5 fd
12f 138 189 180 f5 f6
138 189 18a 139 f6 fe
130 139 18a 181 f6 f7
139 18a 18b 13a f7 ff
131 13a 18b 182 f7 f8
13a 18b 18c 13b f8 100
134 13d 18e 185 f9 fa
135 13e 18f 186 fa fb
136 13f 190 187 fb fc
137 140 191 188 fc fd
138 141 192 189 fd fe
139 142 193 18a fe ff
13a 143 194 18b ff 100
)
)
(0 "Interior faces of zone SOLID2")
(13 (14 281 500 2 4)(
198 199 19d 19c 101 109
197 19b 19d 199 101 141
19a 19c 19d 19b 101 102
19c 19d 1a1 1a0 102 10a
19b 19f 1a1 19d 102 142
19e 1a0 1a1 19f 102 103
1a0 1a1 1a5 1a4 103 10b
19f 1a3 1a5 1a1 103 143
1a2 1a4 1a5 1a3 103 104
1a4 1a5 1a9 1a8 104 10c
1a3 1a7 1a9 1a5 104 144
1a6 1a8 1a9 1a7 104 105
1a8 1a9 1ad 1ac 105 10d
1a7 1ab 1ad 1a9 105 145
1aa 1ac 1ad 1ab 105 106
1ac 1ad 1b1 1b0 106 10e
1ab 1af 1b1 1ad 106 146
1ae 1b0 1b1 1af 106 107
1b0 1b1 1b5 1b4 107 10f
1af 1b3 1b5 1b1 107 147
1b2 1b4 1b5 1b3 107 108
1b4 1b5 1b9 1b8 108 110
1b3 1b7 1b9 1b5 108 148
1ba 1bb 1bd 1bc 109 111
199 19d 1bd 1bb 109 149
19c 1bc 1bd 19d 109 10a
1bc 1bd 1bf 1be 10a 112
19d 1a1 1bf 1bd 10a 14a
1a0 1be 1bf 1a1 10a 10b
1be 1bf 1c1 1c0 10b 113
1a1 1a5 1c1 1bf 10b 14b
1a4 1c0 1c1 1a5 10b 10c
1c0 1c1 1c3 1c2 10c 114
1a5 1a9 1c3 1c1 10c 14c
1a8 1c2 1c3 1a9 10c 10d
1c2 1c3 1c5 1c4 10d 115
1a9 1ad 1c5 1c3 10d 14d
1ac 1c4 1c5 1ad 10d 10e
1c4 1c5 1c7 1c6 10e 116
1ad 1b1 1c7 1c5 10e 14e
1b0 1c6 1c7 1b1 10e 10f
1c6 1c7 1c9 1c8 10f 117
1b1 1b5 1c9 1c7 10f 14f
1b4 1c8 1c9 1b5 10f 110
1c8 1c9 1cb 1ca 110 118
1b5 1b9 1cb 1c9 110 150
1cc 1cd 1cf 1ce 111 119
1bb 1bd 1cf 1cd 111 151
1bc 1ce 1cf 1bd 111 112
1ce 1cf 1d1 1d0 112 11a
1bd 1bf 1d1 1cf 112 152
1be 1d0 1d1 1bf 112 113
1d0 1d1 1d3 1d2 113 11b
1bf 1c1 1d3 1d1 113 153
1c0 1d2 1d3 1c1 113 114
1d2 1d3 1d5 1d4 114 11c
1c1 1c3 1d5 1d3 114 154
1c2 1d4 1d5 1c3 114 115
1d4 1d5 1d7 1d6 115 11d
1c3 1c5 1d7 1d5 115 155
1c4 1d6 1d7 1c5 115 116
1d6 1d7 1d9 1d8 116 11e
1c5 1c7 1d9 1d7 116 156
1c6 1d8 1d9 1c7 116 117
1d8 1d9 1db 1da 117 11f
1c7 1c9 1db 1d9 117 157
1c8 1da 1db 1c9 117 118
1da 1db 1dd 1dc 118 120
1c9 1cb 1dd 1db 118 158
1de 1df 1e1 1e0 119 121
1cd 1cf 1e1 1df 119 159
1ce 1e0 1e1 1cf 119 11a
1e0 1e1 1e3 1e2 11a 122
1cf 1d1 1e3 1e1 11a 15a
1d0 1e2 1e3 1d1 11a 11b
1e2 1e3 1e5 1e4 11b 123
1d1 1d3 1e5 1e3 11b 15b
1d2 1e4 1e5 1d3 11b 11c
1e4 1e5 1e7 1e6 11c 124
1d3 1d5 1e7 1e5 11c 15c
1d4 1e6 1e7 1d5 11c 11d
1e6 1e7 1e9 1e8 11d 125
1d5 1d7 1e9 1e7 11d 15d
1d6 1e8 1e9 1d7 11d 11e
1e8 1e9 1eb 1ea 11e 126
1d7 1d9 1eb 1e9 11e 15e
1d8 1ea 1eb 1d9 11e 11f
1ea 1eb 1ed 1ec 11f 127
1d9 1db 1ed 1eb 11f 15f
1da 1ec 1ed 1db 11f 120
1ec 1ed 1ef 1ee 120 128
1db 1dd 1ef 1ed 120 160
1f0 1f1 1f3 1f2 121 129
1df 1e1 1f3 1f1 121 161
1e0 1f2 1f3 1e1 121 122
1f2 1f3 1f5 1f4 122 12a
1e1 1e3 1f5 1f3 122 162
1e2 1f4 1f5 1e3 122 123
1f4 1f5 1f7 1f6 123 12b
1e3 1e5 1f7 1f5 123 163
1e4 1f6 1f7 1e5 123 124
1f6 1f7 1f9 1f8 124 12c
1e5 1e7 1f9 1f7 124 164
1e6 1f8 1f9 1e7 124 125
1f8 1f9 1fb 1fa 125 12d
1e7 1e9 1fb 1f9 125 165
1e8 1fa 1fb 1e9 125 126
1fa 1fb 1fd 1fc 126 12e
1e9 1eb 1fd 1fb 126 166
1ea 1fc 1fd 1eb 126 127
1fc 1fd 1ff 1fe 127 12f
1eb 1ed 1ff 1fd 127 167
1ec 1fe 1ff 1ed 127 128
1fe 1ff 201 200 128 130
1ed 1ef 201 1ff 128 168
202 203 205 204 129 131
1f1 1f3 205 203 129 169
1f2 204 205 1f3 129 12a
204 205 207 206 12a 132
1f3 1f5 207 205 12a 16a
1f4 206 207 1f5 12a 12b
206 207 209 208 12b 133
1f5 1f7 209 207 12b 16b
1f6 208 209 1f7 12b 12c
208 209 20b 20a 12c 134
1f7 1f9 20b 209 12c 16c
1f8 20a 20b 1f9 12c 12d
20a 20b 20d 20c 12d 135
1f9 1fb 20d 20b 12d 16d
1fa 20c 20d 1fb 12d 12e
20c 20d 20f 20e 12e 136
1fb 1fd 20f 20d 12e 16e
1fc 20e 20f 1fd 12e 12f
20e 20f 211 210 12f 137
1fd 1ff 211 20f 12f 16f
1fe 210 211 1ff 12f 130
210 211 213 212 130 138
1ff 201 213 211 130 170
214 215 217 216 131 139
203 205 217 215 131 171
204 216 217 205 131 132
216 217 219 218 132 13a
205 207 219 217 132 172
206 218 219 207 132 133
218 219 21b 21a 133 13b
207 209 21b 219 133 173
208 21a 21b 209 133 134
21a 21b 21d 21c 134 13c
209 20b 21d 21b 134 174
20a 21c 21d 20b 134 135
21c 21d 21f 21e 135 13d
20b 20d 21f 21d 135 175
20c 21e 21f 20d 135 136
21e 21f 221 220 136 13e
20d 20f 221 21f 136 176
20e 220 221 20f 136 137
220 221 223 222 137 13f
20f 211 223 221 137 177
210 222 223 211 137 138
222 223 225 224 138 140
211 213 225 223 138 178
215 217 229 227 139 179
216 228 229 217 139 13a
217 219 22b 229 13a 17a
218 22a 22b 219 13a 13b
219 21b 22d 22b 13b 17b
21a 22c 22d 21b 13b 13c
21b 21d 22f 22d 13c 17c
21c 22e 22f 21d 13c 13d
21d 21f 231 22f 13d 17d
21e 230 231 21f 13d 13e
21f 221 233 231 13e 17e
220 232 233 221 13e 13f
221 223 235 233 13f 17f
222 234 235 223 13f 140
223 225 237 235 140 180
199 239 23b 19d 141 149
238 23a 23b 239 141 181
19b 19d 23b 23a 141 142
19d 23b 23d 1a1 142 14a
23a 23c 23d 23b 142 182
19f 1a1 23d 23c 142 143
1a1 23d 23f 1a5 143 14b
23c 23e 23f 23d 143 183
1a3 1a5 23f 23e 143 144
1a5 23f 241 1a9 144 14c
23e 240 241 23f 144 184
1a7 1a9 241 240 144 145
1a9 241 243 1ad 145 14d
240 242 243 241 145 185
1ab 1ad 243 242 145 146
1ad 243 245 1b1 146 14e
242 244 245 243 146 186
1af 1b1 245 244 146 147
1b1 245 247 1b5 147 14f
244 246 247 245 147 187
1b3 1b5 247 246 147 148
1b5 247 249 1b9 148 150
246 248 249 247 148 188
1bb 24a 24b 1bd 149 151
239 23b 24b 24a 149 189
19d 1bd 24b 23b 149 14a
1bd 24b 24c 1bf 14a 152
23b 23d 24c 24b 14a 18a
1a1 1bf 24c 23d 14a 14b
1bf 24c 24d 1c1 14b 153
23d 23f 24d 24c 14b 18b
1a5 1c1 24d 23f 14b 14c
1c1 24d 24e 1c3 14c 154
23f 241 24e 24d 14c 18c
1a9 1c3 24e 241 14c 14d
1c3 24e 24f 1c5 14d 155
241 243 24f 24e 14d 18d
1ad 1c5 24f 243 14d 14e
1c5 24f 250 1c7 14e 156
243 245 250 24f 14e 18e
1b1 1c7 250 245 14e 14f
1c7 250 251 1c9 14f 157
245 247 251 250 14f 18f
1b5 1c9 251 247 14f 150
1c9 251 252 1cb 150 158
247 249 252 251 150 190
1cd 253 254 1cf 151 159
24a 24b 254 253 151 191
1bd 1cf 254 24b 151 152
1cf 254 255 1d1 152 15a
24b 24c 255 254 152 192
1bf 1d1 255 24c 152 153
1d1 255 256 1d3 153 15b
24c 24d 256 255 153 193
1c1 1d3 256 24d 153 154
1d3 256 257 1d5 154 15c
24d 24e 257 256 154 194
1c3 1d5 257 24e 154 155
1d5 257 258 1d7 155 15d
24e 24f 258 257 155 195
1c5 1d7 258 24f 155 156
1d7 258 259 1d9 156 15e
24f 250 259 258 156 196
1c7 1d9 259 250 156 157
1d9 259 25a 1db 157 15f
250 251 25a 259 157 197
1c9 1db 25a 251 157 158
1db 25a 25b 1dd 158 160
251 252 25b 25a 158 198
1df 25c 25d 1e1 159 161
253 254 25d 25c 159 199
1cf 1e1 25d 254 159 15a
1e1 25d 25e 1e3 15a 162
254 255 25e 25d 15a 19a
1d1 1e3 25e 255 15a 15b
1e3 25e 25f 1e5 15b 163
255 256 25f 25e 15b 19b
1d3 1e5 25f 256 15b 15c
1e5 25f 260 1e7 15c 164
256 257 260 25f 15c 19c
1d5 1e7 260 257 15c 15d
1e7 260 261 1e9 15d 165
257 258 261 260 15d 19d
1d7 1e9 261 258 15d 15e
1e9 261 262 1eb 15e 166
258 259 262 261 15e 19e
1d9 1eb 262 259 15e 15f
1eb 262 263 1ed 15f 167
259 25a 263 262 15f 19f
1db 1ed 263 25a 15f 160
1ed 263 264 1ef 160 168
25a 25b 264 263 160 1a0
1f1 265 266 1f3 161 169
25c 25d 266 265 161 1a1
1e1 1f3 266 25d 161 162
1f3 266 267 1f5 162 16a
25d 25e 267 266 162 1a2
1e3 1f5 267 25e 162 163
1f5 267 268 1f7 163 16b
25e 25f 268 267 163 1a3
1e5 1f7 268 25f 163 164
1f7 268 269 1f9 164 16c
25f 260 269 268 164 1a4
1e7 1f9 269 260 164 165
1f9 269 26a 1fb 165 16d
260 261 26a 269 165 1a5
1e9 1fb 26a 261 165 166
1fb 26a 26b 1fd 166 16e
261 262 26b 26a 166 1a6
1eb 1fd 26b 262 166 167
1fd 26b 26c 1ff 167 16f
262 263 26c 26b 167 1a7
1ed 1ff 26c 263 167 168
1ff 26c 26d 201 168 170
263 264 26d 26c 168 1a8
203 26e 26f 205 169 171
265 266 26f 26e 169 1a9
1f3 205 26f 266 169 16a
205 26f 270 207 16a 172
266 267 270 26f 16a 1aa
1f5 207 270 267 16a 16b
207 270 271 209 16b 173
267 268 271 270 16b 1ab
1f7 209 271 268 16b 16c
209 271 272 20b 16c 174
268 269 272 271 16c 1ac
1f9 20b 272 269 16c 16d
20b 272 273 20d 16d 175
269 26a 273 272 16d 1ad
1fb 20d 273 26a 16d 16e
20d 273 274 20f 16e 176
26a 26b 274 273 16e 1ae
1fd 20f 274 26b 16e 16f
20f 274 275 211 16f 177
26b 26c 275 274 16f 1af
1ff 211 275 26c 16f 170
211 275 276 213 170 178
26c 26d 276 275 170 1b0
215 277 278 217 171 179
26e 26f 278 277 171 1b1
205 217 278 26f 171 172
217 278 279 219 172 17a
26f 270 279 278 172 1b2
207 219 279 270 172 173
219 279 27a 21b 173 17b
270 271 27a 279 173 1b3
209 21b 27a 271 173 174
21b 27a 27b 21d 174 17c
271 272 27b 27a 174 1b4
20b 21d 27b 272 174 175
21d 27b 27c 21f 175 17d
272 273 27c 27b 175 1b5
20d 21f 27c 273 175 176
21f 27c 27d 221 176 17e
273 274 27d 27c 176 1b6
20f 221 27d 274 176 177
221 27d 27e 223 177 17f
274 275 27e 27d 177 1b7
211 223 27e 275 177 178
223 27e 27f 225 178 180
275 276 27f 27e 178 1b8
277 278 281 280 179 1b9
217 229 281 278 179 17a
278 279 282 281 17a 1ba
219 22b 282 279 17a 17b
279 27a 283 282 17b 1bb
21b 22d 283 27a 17b 17c
27a 27b 284 283 17c 1bc
21d 22f 284 27b 17c 17d
27b 27c 285 284 17d 1bd
21f 231 285 27c 17d 17e
27c 27d 286 285 17e 1be
221 233 286 27d 17e 17f
27d 27e 287 286 17f 1bf
223 235 287 27e 17f 180
27e 27f 288 287 180 1c0
239 28a 28c 23b 181 189
289 28b 28c 28a 181 1c1
23a 23b 28c 28b 181 182
23b 28c 28e 23d 182 18a
28b 28d 28e 28c 182 1c2
23c 23d 28e 28d 182 183
23d 28e 290 23f 183 18b
28d 28f 290 28e 183 1c3
23e 23f 290 28f 183 184
23f 290 292 241 184 18c
28f 291 292 290 184 1c4
240 241 292 291 184 185
241 292 294 243 185 18d
291 293 294 292 185 1c5
242 243 294 293 185 186
243 294 296 245 186 18e
293 295 296 294 186 1c6
244 245 296 295 186 187
245 296 298 247 187 18f
295 297 298 296 187 1c7
246 247 298 297 187 188
247 298 29a 249 188 190
297 299 29a 298 188 1c8
24a 29b 29c 24b 189 191
28a 28c 29c 29b 189 1c9
23b 24b 29c 28c 189 18a
24b 29c 29d 24c 18a 192
28c 28e 29d 29c 18a 1ca
23d 24c 29d 28e 18a 18b
24c 29d 29e 24d 18b 193
28e 290 29e 29d 18b 1cb
23f 24d 29e 290 18b 18c
24d 29e 29f 24e 18c 194
290 292 29f 29e 18c 1cc
241 24e 29f 292 18c 18d
24e 29f 2a0 24f 18d 195
292 294 2a0 29f 18d 1cd
243 24f 2a0 294 18d 18e
24f 2a0 2a1 250 18e 196
294 296 2a1 2a0 18e 1ce
245 250 2a1 296 18e 18f
250 2a1 2a2 251 18f 197
296 298 2a2 2a1 18f 1cf
247 251 2a2 298 18f 190
251 2a2 2a3 252 190 198
298 29a 2a3 2a2 190 1d0
253 2a4 2a5 254 191 199
29b 29c 2a5 2a4 191 1d1
24b 254 2a5 29c 191 192
254 2a5 2a6 255 192 19a
29c 29d 2a6 2a5 192 1d2
24c 255 2a6 29d 192 193
255 2a6 2a7 256 193 19b
29d 29e 2a7 2a6 193 1d3
24d 256 2a7 29e 193 194
256 2a7 2a8 257 194 19c
29e 29f 2a8 2a7 194 1d4
24e 257 2a8 29f 194 195
257 2a8 2a9 258 195 19d
29f 2a0 2a9 2a8 195 1d5
24f 258 2a9 2a0 195 196
258 2a9 2aa 259 196 19e
2a0 2a1 2aa 2a9 196 1d6
250 259 2aa 2a1 196 197
259 2aa 2ab 25a 197 19f
2a1 2a2 2ab 2aa 197 1d7
251 25a 2ab 2a2 197 198
25a 2ab 2ac 25b 198 1a0
2a2 2a3 2ac 2ab 198 1d8
25c 2ad 2ae 25d 199 1a1
2a4 2a5 2ae 2ad 199 1d9
254 25d 2ae 2a5 199 19a
25d 2ae 2af 25e 19a 1a2
2a5 2a6 2af 2ae 19a 1da
255 25e 2af 2a6 19a 19b
25e 2af 2b0 25f 19b 1a3
2a6 2a7 2b0 2af 19b 1db
256 25f 2b0 2a7 19b 19c
25f 2b0 2b1 260 19c 1a4
2a7 2a8 2b1 2b0 19c 1dc
257 260 2b1 2a8 19c 19d
260 2b1 2b2 261 19d 1a5
2a8 2a9 2b2 2b1 19d 1dd
258 261 2b2 2a9 19d 19e
261 2b2 2b3 262 19e 1a6
2a9 2aa 2b3 2b2 19e 1de
259 262 2b3 2aa 19e 19f
262 2b3 2b4 263 19f 1a7
2aa 2ab 2b4 2b3 19f 1df
25a 263 2b4 2ab 19f 1a0
263 2b4 2b5 264 1a0 1a8
2ab 2ac 2b5 2b4 1a0 1e0
265 2b6 2b7 266 1a1 1a9
2ad 2ae 2b7 2b6 1a1 1e1
25d 266 2b7 2ae 1a1 1a2
266 2b7 2b8 267 1a2 1aa
2ae 2af 2b8 2b7 1a2 1e2
25e 267 2b8 2af 1a2 1a3
267 2b8 2b9 268 1a3 1ab
2af 2b0 2b9 2b8 1a3 1e3
25f 268 2b9 2b0 1a3 1a4
268 2b9 2ba 269 1a4 1ac
2b0 2b1 2ba 2b9 1a4 1e4
260 269 2ba 2b1 1a4 1a5
269 2ba 2bb 26a 1a5 1ad
2b1 2b2 2bb 2ba 1a5 1e5
261 26a 2bb 2b2 1a5 1a6
26a 2bb 2bc 26b 1a6 1ae
2b2 2b3 2bc 2bb 1a6 1e6
262 26b 2bc 2b3 1a6 1a7
26b 2bc 2bd 26c 1a7 1af
2b3 2b4 2bd 2bc 1a7 1e7
263 26c 2bd 2b4 1a7 1a8
26c 2bd 2be 26d 1a8 1b0
2b4 2b5 2be 2bd 1a8 1e8
26e 2bf 2c0 26f 1a9 1b1
2b6 2b7 2c0 2bf 1a9 1e9
266 26f 2c0 2b7 1a9 1aa
26f 2c0 2c1 270 1aa 1b2
2b7 2b8 2c1 2c0 1aa 1ea
267 270 2c1 2b8 1aa 1ab
270 2c1 2c2 271 1ab 1b3
2b8 2b9 2c2 2c1 1ab 1eb
268 271 2c2 2b9 1ab 1ac
271 2c2 2c3 272 1ac 1b4
2b9 2ba 2c3 2c2 1ac 1ec
269 272 2c3 2ba 1ac 1ad
272 2c3 2c4 273 1ad 1b5
2ba 2bb 2c4 2c3 1ad 1ed
26a 273 2c4 2bb 1ad 1ae
273 2c4 2c5 274 1ae 1b6
2bb 2bc 2c5 2c4 1ae 1ee
26b 274 2c5 2bc 1ae 1af
274 2c5 2c6 275 1af 1b7
2bc 2bd 2c6 2c5 1af 1ef
26c 275 2c6 2bd 1af 1b0
275 2c6 2c7 276 1b0 1b8
2bd 2be 2c7 2c6 1b0 1f0
277 2c8 2c9 278 1b1 1b9
2bf 2c0 2c9 2c8 1b1 1f1
26f 278 2c9 2c0 1b1 1b2
278 2c9 2ca 279 1b2 1ba
2c0 2c1 2ca 2c9 1b2 1f2
270 279 2ca 2c1 1b2 1b3
279 2ca 2cb 27a 1b3 1bb
2c1 2c2 2cb 2ca 1b3 1f3
271 27a 2cb 2c2 1b3 1b4
27a 2cb 2cc 27b 1b4 1bc
2c2 2c3 2cc 2cb 1b4 1f4
272 27b 2cc 2c3 1b4 1b5
27b 2cc 2cd 27c 1b5 1bd
2c3 2c4 2cd 2cc 1b5 1f5
273 27c 2cd 2c4 1b5 1b6
27c 2cd 2ce 27d 1b6 1be
2c4 2c5 2ce 2cd 1b6 1f6
274 27d 2ce 2c5 1b6 1b7
27d 2ce 2cf 27e 1b7 1bf
2c5 2c6 2cf 2ce 1b7 1f7
275 27e 2cf 2c6 1b7 1b8
27e 2cf 2d0 27f 1b8 1c0
2c6 2c7 2d0 2cf 1b8 1f8
2c8 2c9 2d2 2d1 1b9 1f9
278 281 2d2 2c9 1b9 1ba
2c9 2ca 2d3 2d2 1ba 1fa
279 282 2d3 2ca 1ba 1bb
2ca 2cb 2d4 2d3 1bb 1fb
27a 283 2d4 2cb 1bb 1bc
2cb 2cc 2d5 2d4 1bc 1fc
27b 284 2d5 2cc 1bc 1bd
2cc 2cd 2d6 2d5 1bd 1fd
27c 285 2d6 2cd 1bd 1be
2cd 2ce 2d7 2d6 1be 1fe
27d 286 2d7 2ce 1be 1bf
2ce 2cf 2d8 2d7 1bf 1ff
27e 287 2d8 2cf 1bf 1c0
2cf 2d0 2d9 2d8 1c0 200
28a 2db 2dd 28c 1c1 1c9
28b 28c 2dd 2dc 1c1 1c2
28c 2dd 2df 28e 1c2 1ca
28d 28e 2df 2de 1c2 1c3
28e 2df 2e1 290 1c3 1cb
28f 290 2e1 2e0 1c3 1c4
290 2e1 2e3 292 1c4 1cc
291 292 2e3 2e2 1c4 1c5
292 2e3 2e5 294 1c5 1cd
293 294 2e5 2e4 1c5 1c6
294 2e5 2e7 296 1c6 1ce
295 296 2e7 2e6 1c6 1c7
296 2e7 2e9 298 1c7 1cf
297 298 2e9 2e8 1c7 1c8
298 2e9 2eb 29a 1c8 1d0
29b 2ec 2ed 29c 1c9 1d1
28c 29c 2ed 2dd 1c9 1ca
29c 2ed 2ee 29d 1ca 1d2
28e 29d 2ee 2df 1ca 1cb
29d 2ee 2ef 29e 1cb 1d3
290 29e 2ef 2e1 1cb 1cc
29e 2ef 2f0 29f 1cc 1d4
292 29f 2f0 2e3 1cc 1cd
29f 2f0 2f1 2a0 1cd 1d5
294 2a0 2f1 2e5 1cd 1ce
2a0 2f1 2f2 2a1 1ce 1d6
296 2a1 2f2 2e7 1ce 1cf
2a1 2f2 2f3 2a2 1cf 1d7
298 2a2 2f3 2e9 1cf 1d0
2a2 2f3 2f4 2a3 1d0 1d8
2a4 2f5 2f6 2a5 1d1 1d9
29c 2a5 2f6 2ed 1d1 1d2
2a5 2f6 2f7 2a6 1d2 1da
29d 2a6 2f7 2ee 1d2 1d3
2a6 2f7 2f8 2a7 1d3 1db
29e 2a7 2f8 2ef 1d3 1d4
2a7 2f8 2f9 2a8 1d4 1dc
29f 2a8 2f9 2f0 1d4 1d5
2a8 2f9 2fa 2a9 1d5 1dd
2a0 2a9 2fa 2f1 1d5 1d6
2a9 2fa 2fb 2aa 1d6 1de
2a1 2aa 2fb 2f2 1d6 1d7
2aa 2fb 2fc 2ab 1d7 1df
2a2 2ab 2fc 2f3 1d7 1d8
2ab 2fc 2fd 2ac 1d8 1e0
2ad 2fe 2ff 2ae 1d9 1e1
2a5 2ae 2ff 2f6 1d9 1da
2ae 2ff 300 2af 1da 1e2
2a6 2af 300 2f7 1da 1db
2af 300 301 2b0 1db 1e3
2a7 2b0 301 2f8 1db 1dc
2b0 301 302 2b1 1dc 1e4
2a8 2b1 302 2f9 1dc 1dd
2b1 302 303 2b2 1dd 1e5
2a9 2b2 303 2fa 1dd 1de
2b2 303 304 2b3 1de 1e6
2aa 2b3 304 2fb 1de 1df
2b3 304 305 2b4 1df 1e7
2ab 2b4 305 2fc 1df 1e0
2b4 305 306 2b5 1e0 1e8
2b6 307 308 2b7 1e1 1e9
2ae 2b7 308 2ff 1e1 1e2
2b7 308 309 2b8 1e2 1ea
2af 2b8 309 300 1e2 1e3
2b8 309 30a 2b9 1e3 1eb
2b0 2b9 30a 301 1e3 1e4
2b9 30a 30b 2ba 1e4 1ec
2b1 2ba 30b 302 1e4 1e5
2ba 30b 30c 2bb 1e5 1ed
2b2 2bb 30c 303 1e5 1e6
2bb 30c 30d 2bc 1e6 1ee
2b3 2bc 30d 304 1e6 1e7
2bc 30d 30e 2bd 1e7 1ef
2b4 2bd 30e 305 1e7 1e8
2bd 30e 30f 2be 1e8 1f0
2bf 310 311 2c0 1e9 1f1
2b7 2c0 311 308 1e9 1ea
2c0 311 312 2c1 1ea 1f2
2b8 2c1 312 309 1ea 1eb
2c1 312 313 2c2 1eb 1f3
2b9 2c2 313 30a 1eb 1ec
2c2 313 314 2c3 1ec 1f4
2ba 2c3 314 30b 1ec 1ed
2c3 314 315 2c4 1ed 1f5
2bb 2c4 315 30c 1ed 1ee
2c4 315 316 2c5 1ee 1f6
2bc 2c5 316 30d 1ee 1ef
2c5 316 317 2c6 1ef 1f7
2bd 2c6 317 30e 1ef 1f0
2c6 317 318 2c7 1f0 1f8
2c8 319 31a 2c9 1f1 1f9
2c0 2c9 31a 311 1f1 1f2
2c9 31a 31b 2ca 1f2 1fa
2c1 2ca 31b 312 1f2 1f3
2ca 31b 31c 2cb 1f3 1fb
2c2 2cb 31c 313 1f3 1f4
2cb 31c 31d 2cc 1f4 1fc
2c3 2cc 31d 314 1f4 1f5
2cc 31d 31e 2cd 1f5 1fd
2c4 2cd 31e 315 1f5 1f6
2cd 31e 31f 2ce 1f6 1fe
2c5 2ce 31f 316 1f6 1f7
2ce 31f 320 2cf 1f7 1ff
2c6 2cf 320 317 1f7 1f8
2cf 320 321 2d0 1f8 200
2c9 2d2 323 31a 1f9 1fa
2ca 2d3 324 31b 1fa 1fb
2cb 2d4 325 31c 1fb 1fc
2cc 2d5 326 31d 1fc 1fd
2cd 2d6 327 31e 1fd 1fe
2ce 2d7 328 31f 1fe 1ff
2cf 2d8 329 320 1ff 200
)
)
(0 "Faces of zone SYMMETRY_SOLID")
(13 (15 501 540 7 4)(
21 23 24 22 8 0
23 35 36 24 10 0
35 47 48 36 18 0
47 59 5a 48 20 0
59 6b 6c 5a 28 0
6b 7d 7e 6c 30 0
7d 8f 90 7e 38 0
8f a1 a2 90 40 0
22 24 b4 b3 48 0
24 36 bd b4 50 0
36 48 c6 bd 58 0
48 5a cf c6 60 0
5a 6c d8 cf 68 0
6c 7e e1 d8 70 0
7e 90 ea e1 78 0
90 a2 f3 ea 80 0
b3 b4 105 104 88 0
b4 bd 10e 105 90 0
bd c6 117 10e 98 0
c6 cf 120 117 a0 0
cf d8 129 120 a8 0
d8 e1 132 129 b0 0
e1 ea 13b 132 b8 0
ea f3 144 13b c0 0
104 105 156 155 c8 0
105 10e 15f 156 d0 0
10e 117 168 15f d8 0
117 120 171 168 e0 0
120 129 17a 171 e8 0
129 132 183 17a f0 0
132 13b 18c 183 f8 0
13b 144 195 18c 100 0
1b6 1b8 1b9 1b7 108 0
1b8 1ca 1cb 1b9 110 0
1ca 1dc 1dd 1cb 118 0
1dc 1ee 1ef 1dd 120 0
1ee 200 201 1ef 128 0
200 212 213 201 130 0
212 224 225 213 138 0
224 236 237 225 140 0
1b7 1b9 249 248 148 0
1b9 1cb 252 249 150 0
1cb 1dd 25b 252 158 0
1dd 1ef 264 25b 160 0
1ef 201 26d 264 168 0
201 213 276 26d 170 0
213 225 27f 276 178 0
225 237 288 27f 180 0
248 249 29a 299 188 0
249 252 2a3 29a 190 0
252 25b 2ac 2a3 198 0
25b 264 2b5 2ac 1a0 0
264 26d 2be 2b5 1a8 0
26d 276 2c7 2be 1b0 0
276 27f 2d0 2c7 1b8 0
27f 288 2d9 2d0 1c0 0
299 29a 2eb 2ea 1c8 0
29a 2a3 2f4 2eb 1d0 0
2a3 2ac 2fd 2f4 1d8 0
2ac 2b5 306 2fd 1e0 0
2b5 2be 30f 306 1e8 0
2be 2c7 318 30f 1f0 0
2c7 2d0 321 318 1f8 0
2d0 2d9 32a 321 200 0
)
)
(0 "Faces of zone INTERFACE1")
(13 (16 541 600 3 4)(
1 2 4 3 1 0
3 4 26 25 9 0
25 26 38 37 11 0
37 38 4a 49 19 0
49 4a 5c 5b 21 0
5b 5c 6e 6d 29 0
6d 6e 80 7f 31 0
7f 80 92 91 39 0
2 a3 a4 4 41 0
4 a4 b5 26 49 0
26 b5 be 38 51 0
38 be c7 4a 59 0
4a c7 d0 5c 61 0
5c d0 d9 6e 69 0
6e d9 e2 80 71 0
80 e2 eb 92 79 0
a3 f4 f5 a4 81 0
a4 f5 106 b5 89 0
b5 106 10f be 91 0
be 10f 118 c7 99 0
c7 118 121 d0 a1 0
d0 121 12a d9 a9 0
d9 12a 133 e2 b1 0
e2 133 13c eb b9 0
f4 145 146 f5 c1 0
f5 146 157 106 c9 0
106 157 160 10f d1 0
10f 160 169 118 d9 0
118 169 172 121 e1 0
121 172 17b 12a e9 0
12a 17b 184 133 f1 0
133 184 18d 13c f9 0
1 3 7 5 1 0
5 7 b 9 2 0
9 b f d 3 0
d f 13 11 4 0
11 13 17 15 5 0
15 17 1b 19 6 0
19 1b 1f 1d 7 0
1d 1f 23 21 8 0
3 25 27 7 9 0
7 27 29 b a 0
b 29 2b f b 0
f 2b 2d 13 c 0
13 2d 2f 17 d 0
17 2f 31 1b e 0
1b 31 33 1f f 0
1f 33 35 23 10 0
25 37 39 27 11 0
27 39 3b 29 12 0
29 3b 3d 2b 13 0
2b 3d 3f 2d 14 0
2d 3f 41 2f 15 0
2f 41 43 31 16 0
31 43 45 33 17 0
33 45 47 35 18 0
37 49 4b 39 19 0
39 4b 4d 3b 1a 0
3b 4d 4f 3d 1b 0
3d 4f 51 3f 1c 0
3f 51 53 41 1d 0
41 53 55 43 1e 0
43 55 57 45 1f 0
45 57 59 47 20 0
49 5b 5d 4b 21 0
4b 5d 5f 4d 22 0
4d 5f 61 4f 23 0
4f 61 63 51 24 0
51 63 65 53 25 0
53 65 67 55 26 0
55 67 69 57 27 0
57 69 6b 59 28 0
5b 6d 6f 5d 29 0
5d 6f 71 5f 2a 0
5f 71 73 61 2b 0
61 73 75 63 2c 0
63 75 77 65 2d 0
65 77 79 67 2e 0
67 79 7b 69 2f 0
69 7b 7d 6b 30 0
6d 7f 81 6f 31 0
6f 81 83 71 32 0
71 83 85 73 33 0
73 85 87 75 34 0
75 87 89 77 35 0
77 89 8b 79 36 0
79 8b 8d 7b 37 0
7b 8d 8f 7d 38 0
7f 91 93 81 39 0
81 93 95 83 3a 0
83 95 97 85 3b 0
85 97 99 87 3c 0
87 99 9b 89 3d 0
89 9b 9d 8b 3e 0
8b 9d 9f 8d 3f 0
8d 9f a1 8f 40 0
91 92 94 93 39 0
93 94 96 95 3a 0
95 96 98 97 3b 0
97 98 9a 99 3c 0
99 9a 9c 9b 3d 0
9b 9c 9e 9d 3e 0
9d 9e a0 9f 3f 0
9f a0 a2 a1 40 0
92 eb ec 94 79 0
94 ec ed 96 7a 0
96 ed ee 98 7b 0
98 ee ef 9a 7c 0
9a ef f0 9c 7d 0
9c f0 f1 9e 7e 0
9e f1 f2 a0 7f 0
a0 f2 f3 a2 80 0
eb 13c 13d ec b9 0
ec 13d 13e ed ba 0
ed 13e 13f ee bb 0
ee 13f 140 ef bc 0
ef 140 141 f0 bd 0
f0 141 142 f1 be 0
f1 142 143 f2 bf 0
f2 143 144 f3 c0 0
13c 18d 18e 13d f9 0
13d 18e 18f 13e fa 0
13e 18f 190 13f fb 0
13f 190 191 140 fc 0
140 191 192 141 fd 0
141 192 193 142 fe 0
142 193 194 143 ff 0
143 194 195 144 100 0
145 147 148 146 c1 0
147 149 14a 148 c2 0
149 14b 14c 14a c3 0
14b 14d 14e 14c c4 0
14d 14f 150 14e c5 0
14f 151 152 150 c6 0
151 153 154 152 c7 0
153 155 156 154 c8 0
146 148 158 157 c9 0
148 14a 159 158 ca 0
14a 14c 15a 159 cb 0
14c 14e 15b 15a cc 0
14e 150 15c 15b cd 0
150 152 15d 15c ce 0
152 154 15e 15d cf 0
154 156 15f 15e d0 0
157 158 161 160 d1 0
158 159 162 161 d2 0
159 15a 163 162 d3 0
15a 15b 164 163 d4 0
15b 15c 165 164 d5 0
15c 15d 166 165 d6 0
15d 15e 167 166 d7 0
15e 15f 168 167 d8 0
160 161 16a 169 d9 0
161 162 16b 16a da 0
162 163 16c 16b db 0
163 164 16d 16c dc 0
164 165 16e 16d dd 0
165 166 16f 16e de 0
166 167 170 16f df 0
167 168 171 170 e0 0
169 16a 173 172 e1 0
16a 16b 174 173 e2 0
16b 16c 175 174 e3 0
16c 16d 176 175 e4 0
16d 16e 177 176 e5 0
16e 16f 178 177 e6 0
16f 170 179 178 e7 0
170 171 17a 179 e8 0
172 173 17c 17b e9 0
173 174 17d 17c ea 0
174 175 17e 17d eb 0
175 176 17f 17e ec 0
176 177 180 17f ed 0
177 178 181 180 ee 0
178 179 182 181 ef 0
179 17a 183 182 f0 0
17b 17c 185 184 f1 0
17c 17d 186 185 f2 0
17d 17e 187 186 f3 0
17e 17f 188 187 f4 0
17f 180 189 188 f5 0
180 181 18a 189 f6 0
181 182 18b 18a f7 0
182 183 18c 18b f8 0
184 185 18e 18d f9 0
185 186 18f 18e fa 0
186 187 190 18f fb 0
187 188 191 190 fc 0
188 189 192 191 fd 0
189 18a 193 192 fe 0
18a 18b 194 193 ff 0
18b 18c 195 194 100 0
)
)
(0 "Faces of zone INTERFACE2")
(13 (17 601 6c0 3 4)(
196 198 19c 19a 101 0
19a 19c 1a0 19e 102 0
19e 1a0 1a4 1a2 103 0
1a2 1a4 1a8 1a6 104 0
1a6 1a8 1ac 1aa 105 0
1aa 1ac 1b0 1ae 106 0
1ae 1b0 1b4 1b2 107 0
1b2 1b4 1b8 1b6 108 0
198 1ba 1bc 19c 109 0
19c 1bc 1be 1a0 10a 0
1a0 1be 1c0 1a4 10b 0
1a4 1c0 1c2 1a8 10c 0
1a8 1c2 1c4 1ac 10d 0
1ac 1c4 1c6 1b0 10e 0
1b0 1c6 1c8 1b4 10f 0
1b4 1c8 1ca 1b8 110 0
1ba 1cc 1ce 1bc 111 0
1bc 1ce 1d0 1be 112 0
1be 1d0 1d2 1c0 113 0
1c0 1d2 1d4 1c2 114 0
1c2 1d4 1d6 1c4 115 0
1c4 1d6 1d8 1c6 116 0
1c6 1d8 1da 1c8 117 0
1c8 1da 1dc 1ca 118 0
1cc 1de 1e0 1ce 119 0
1ce 1e0 1e2 1d0 11a 0
1d0 1e2 1e4 1d2 11b 0
1d2 1e4 1e6 1d4 11c 0
1d4 1e6 1e8 1d6 11d 0
1d6 1e8 1ea 1d8 11e 0
1d8 1ea 1ec 1da 11f 0
1da 1ec 1ee 1dc 120 0
1de 1f0 1f2 1e0 121 0
1e0 1f2 1f4 1e2 122 0
1e2 1f4 1f6 1e4 123 0
1e4 1f6 1f8 1e6 124 0
1e6 1f8 1fa 1e8 125 0
1e8 1fa 1fc 1ea 126 0
1ea 1fc 1fe 1ec 127 0
1ec 1fe 200 1ee 128 0
1f0 202 204 1f2 129 0
1f2 204 206 1f4 12a 0
1f4 206 208 1f6 12b 0
1f6 208 20a 1f8 12c 0
1f8 20a 20c 1fa 12d 0
1fa 20c 20e 1fc 12e 0
1fc 20e 210 1fe 12f 0
1fe 210 212 200 130 0
202 214 216 204 131 0
204 216 218 206 132 0
206 218 21a 208 133 0
208 21a 21c 20a 134 0
20a 21c 21e 20c 135 0
20c 21e 220 20e 136 0
20e 220 222 210 137 0
210 222 224 212 138 0
214 226 228 216 139 0
216 228 22a 218 13a 0
218 22a 22c 21a 13b 0
21a 22c 22e 21c 13c 0
21c 22e 230 21e 13d 0
21e 230 232 220 13e 0
220 232 234 222 13f 0
222 234 236 224 140 0
196 197 199 198 101 0
198 199 1bb 1ba 109 0
1ba 1bb 1cd 1cc 111 0
1cc 1cd 1df 1de 119 0
1de 1df 1f1 1f0 121 0
1f0 1f1 203 202 129 0
202 203 215 214 131 0
214 215 227 226 139 0
197 238 239 199 141 0
199 239 24a 1bb 149 0
1bb 24a 253 1cd 151 0
1cd 253 25c 1df 159 0
1df 25c 265 1f1 161 0
1f1 265 26e 203 169 0
203 26e 277 215 171 0
215 277 280 227 179 0
238 289 28a 239 181 0
239 28a 29b 24a 189 0
24a 29b 2a4 253 191 0
253 2a4 2ad 25c 199 0
25c 2ad 2b6 265 1a1 0
265 2b6 2bf 26e 1a9 0
26e 2bf 2c8 277 1b1 0
277 2c8 2d1 280 1b9 0
289 2da 2db 28a 1c1 0
28a 2db 2ec 29b 1c9 0
29b 2ec 2f5 2a4 1d1 0
2a4 2f5 2fe 2ad 1d9 0
2ad 2fe 307 2b6 1e1 0
2b6 307 310 2bf 1e9 0
2bf 310 319 2c8 1f1 0
2c8 319 322 2d1 1f9 0
226 227 229 228 139 0
228 229 22b 22a 13a 0
22a 22b 22d 22c 13b 0
22c 22d 22f 22e 13c 0
22e 22f 231 230 13d 0
230 231 233 232 13e 0
232 233 235 234 13f 0
234 235 237 236 140 0
227 280 281 229 179 0
229 281 282 22b 17a 0
22b 282 283 22d 17b 0
22d 283 284 22f 17c 0
22f 284 285 231 17d 0
231 285 286 233 17e 0
233 286 287 235 17f 0
235 287 288 237 180 0
280 2d1 2d2 281 1b9 0
281 2d2 2d3 282 1ba 0
282 2d3 2d4 283 1bb 0
283 2d4 2d5 284 1bc 0
284 2d5 2d6 285 1bd 0
285 2d6 2d7 286 1be 0
286 2d7 2d8 287 1bf 0
287 2d8 2d9 288 1c0 0
2d1 322 323 2d2 1f9 0
2d2 323 324 2d3 1fa 0
2d3 324 325 2d4 1fb 0
2d4 325 326 2d5 1fc 0
2d5 326 327 2d6 1fd 0
2d6 327 328 2d7 1fe 0
2d7 328 329 2d8 1ff 0
2d8 329 32a 2d9 200 0
2da 2dc 2dd 2db 1c1 0
2dc 2de 2df 2dd 1c2 0
2de 2e0 2e1 2df 1c3 0
2e0 2e2 2e3 2e1 1c4 0
2e2 2e4 2e5 2e3 1c5 0
2e4 2e6 2e7 2e5 1c6 0
2e6 2e8 2e9 2e7 1c7 0
2e8 2ea 2eb 2e9 1c8 0
2db 2dd 2ed 2ec 1c9 0
2dd 2df 2ee 2ed 1ca 0
2df 2e1 2ef 2ee 1cb 0
2e1 2e3 2f0 2ef 1cc 0
2e3 2e5 2f1 2f0 1cd 0
2e5 2e7 2f2 2f1 1ce 0
2e7 2e9 2f3 2f2 1cf 0
2e9 2eb 2f4 2f3 1d0 0
2ec 2ed 2f6 2f5 1d1 0
2ed 2ee 2f7 2f6 1d2 0
2ee 2ef 2f8 2f7 1d3 0
2ef 2f0 2f9 2f8 1d4 0
2f0 2f1 2fa 2f9 1d5 0
2f1 2f2 2fb 2fa 1d6 0
2f2 2f3 2fc 2fb 1d7 0
2f3 2f4 2fd 2fc 1d8 0
2f5 2f6 2ff 2fe 1d9 0
2f6 2f7 300 2ff 1da 0
2f7 2f8 301 300 1db 0
2f8 2f9 302 301 1dc 0
2f9 2fa 303 302 1dd 0
2fa 2fb 304 303 1de 0
2fb 2fc 305 304 1df 0
2fc 2fd 306 305 1e0 0
2fe 2ff 308 307 1e1 0
2ff 300 309 308 1e2 0
300 301 30a 309 1e3 0
301 302 30b 30a 1e4 0
302 303 30c 30b 1e5 0
303 304 30d 30c 1e6 0
304 305 30e 30d 1e7 0
305 306 30f 30e 1e8 0
307 308 311 310 1e9 0
308 309 312 311 1ea 0
309 30a 313 312 1eb 0
30a 30b 314 313 1ec 0
30b 30c 315 314 1ed 0
30c 30d 316 315 1ee 0
30d 30e 317 316 1ef 0
30e 30f 318 317 1f0 0
310 311 31a 319 1f1 0
311 312 31b 31a 1f2 0
312 313 31c 31b 1f3 0
313 314 31d 31c 1f4 0
314 315 31e 31d 1f5 0
315 316 31f 31e 1f6 0
316 317 320 31f 1f7 0
317 318 321 320 1f8 0
319 31a 323 322 1f9 0
31a 31b 324 323 1fa 0
31b 31c 325 324 1fb 0
31c 31d 326 325 1fc 0
31d 31e 327 326 1fd 0
31e 31f 328 327 1fe 0
31f 320 329 328 1ff 0
320 321 32a 329 200 0
)
)
(0 "Faces of zone BOTTOM_SOLID")
(13 (18 6c1 700 3 4)(
1 5 6 2 1 0
5 9 a 6 2 0
9 d e a 3 0
d 11 12 e 4 0
11 15 16 12 5 0
15 19 1a 16 6 0
19 1d 1e 1a 7 0
1d 21 22 1e 8 0
2 6 a5 a3 41 0
6 a a7 a5 42 0
a e a9 a7 43 0
e 12 ab a9 44 0
12 16 ad ab 45 0
16 1a af ad 46 0
1a 1e b1 af 47 0
1e 22 b3 b1 48 0
a3 a5 f6 f4 81 0
a5 a7 f8 f6 82 0
a7 a9 fa f8 83 0
a9 ab fc fa 84 0
ab ad fe fc 85 0
ad af 100 fe 86 0
af b1 102 100 87 0
b1 b3 104 102 88 0
f4 f6 147 145 c1 0
f6 f8 149 147 c2 0
f8 fa 14b 149 c3 0
fa fc 14d 14b c4 0
fc fe 14f 14d c5 0
fe 100 151 14f c6 0
100 102 153 151 c7 0
102 104 155 153 c8 0
196 19a 19b 197 101 0
19a 19e 19f 19b 102 0
19e 1a2 1a3 19f 103 0
1a2 1a6 1a7 1a3 104 0
1a6 1aa 1ab 1a7 105 0
1aa 1ae 1af 1ab 106 0
1ae 1b2 1b3 1af 107 0
1b2 1b6 1b7 1b3 108 0
197 19b 23a 238 141 0
19b 19f 23c 23a 142 0
19f 1a3 23e 23c 143 0
1a3 1a7 240 23e 144 0
1a7 1ab 242 240 145 0
1ab 1af 244 242 146 0
1af 1b3 246 244 147 0
1b3 1b7 248 246 148 0
238 23a 28b 289 181 0
23a 23c 28d 28b 182 0
23c 23e 28f 28d 183 0
23e 240 291 28f 184 0
240 242 293 291 185 0
242 244 295 293 186 0
244 246 297 295 187 0
246 248 299 297 188 0
289 28b 2dc 2da 1c1 0
28b 28d 2de 2dc 1c2 0
28d 28f 2e0 2de 1c3 0
28f 291 2e2 2e0 1c4 0
291 293 2e4 2e2 1c5 0
293 295 2e6 2e4 1c6 0
295 297 2e8 2e6 1c7 0
297 299 2ea 2e8 1c8 0
)
)
(0 "Zone Sections")
(39 (17 solid SOLID1)())
(39 (18 solid SOLID2)())
(39 (19 interior int_SOLID1)())
(39 (20 interior int_SOLID2)())
(39 (21 symmetry symmetry)())
(39 (22 wall interface1)())
(39 (23 wall interface2)())
(39 (24 wall bottom)())
